# bin_3_3
-1.092054040757570855e-09
-1.097130956737793897e-09
-1.102394934197810702e-09
-1.107852509573463975e-09
-1.113510232414987718e-09
-1.119379829117617265e-09
-1.125456658815057951e-09
-1.131753457341492023e-09
-1.138435406663484772e-09
-1.145222929388773006e-09
-1.152049114615502933e-09
-1.159313469167633535e-09
-1.166834178672368293e-09
-1.174624354188255493e-09
-1.182691089687271003e-09
-1.191043867273601252e-09
-1.199691801835529677e-09
-1.206539914186044337e-09
-1.217877607811466049e-09
-1.227498893358649385e-09
-1.237421710097081040e-09
-1.247687045109486897e-09
-1.258306980352186580e-09
-1.269291172307842500e-09
-1.280651319193909810e-09
-1.292395115397799074e-09
-1.304536241791480190e-09
-1.317086278743966380e-09
-1.330054419527604406e-09
-1.343475442701868581e-09
-1.357302978584990408e-09
-1.371603674828742834e-09
-1.386370165117649125e-09
-1.401615847239734160e-09
-1.417352328506137777e-09
-1.433593386893073445e-09
-1.450351717215285168e-09
-1.467637735032011944e-09
-1.485468277628140481e-09
-1.503801924421316966e-09
-1.519654060270059489e-09
-1.542325179699356886e-09
-1.562446413935421211e-09
-1.583177798760731891e-09
-1.604633811653575077e-09
-1.626488421949810937e-09
-1.649099993742840256e-09
-1.672368435251188947e-09
-1.696302260647819692e-09
-1.720912657072239991e-09
-1.746208421708978828e-09
-1.772206666272984182e-09
-1.798924746850005540e-09
-1.826329646602934590e-09
-1.854404130440044080e-09
-1.883385235367002272e-09
-1.913023197832638589e-09
-1.943412109980203606e-09
-1.974561461397390272e-09
-2.006475780925561030e-09
-2.039160296033671765e-09
-2.072615276063103656e-09
-2.106854280731921313e-09
-2.141870196205897716e-09
-2.177665090856442783e-09
-2.214240072514318971e-09
-2.251594507857512576e-09
-2.289722302610886972e-09
-2.328626829946211128e-09
-2.368284835369962469e-09
-2.408703971848579789e-09
-2.449875316182376659e-09
-2.491770294075562531e-09
-2.534376617502678790e-09
-2.577693171384906598e-09
-2.621774163723329421e-09
-2.666345119311309456e-09
-2.711641765050568715e-09
-2.757547611104277183e-09
-2.804029363329665347e-09
-2.851066250941630773e-09
-2.898615903706406902e-09
-2.946641490827386467e-09
-2.995101372228620849e-09
-3.043948100582540533e-09
-3.093132849922804328e-09
-3.142635166197442046e-09
-3.192363901347506095e-09
-3.242275073725977431e-09
-3.292308936400619942e-09
-3.342408092910443889e-09
-3.392479031943707633e-09
-3.442483208837109290e-09
-3.492336907870085243e-09
-3.541969881464667829e-09
-3.591304627599662424e-09
-3.640262558560622426e-09
-3.688733992146580973e-09
-3.736648943573844330e-09
-3.783909113976564896e-09
-3.830413511738227757e-09
-3.876090473058899664e-09
-3.920819255525313664e-09
-3.964488823393905450e-09
-4.006992914301370589e-09
-4.048225983753927258e-09
-4.088109876718621393e-09
-4.126530227368717594e-09
-4.163388240147738231e-09
-4.198562483820635487e-09
-4.231921671834565621e-09
-4.263365409073099825e-09
-4.292801990539769964e-09
-4.320183995308334031e-09
-4.345437051851202635e-09
-4.368502174488199192e-09
-4.389307968735263868e-09
-4.407779261503329900e-09
-4.423830369990365629e-09
-4.437373257249162065e-09
-4.448322342057151738e-09
-4.456626266505084441e-09
-4.462226320935318298e-09
-4.465052464381759960e-09
-4.465065638929262864e-09
-4.462231463748986536e-09
-4.456515318754426129e-09
-4.447863799650795731e-09
-4.436255077611290725e-09
-4.421676463346578294e-09
-4.404110499988020521e-09
-4.383552950664471223e-09
-4.359985007945504068e-09
-4.333405674330797336e-09
-4.303826112710605371e-09
-4.271253134758113071e-09
-4.235714668763585393e-09
-4.197213508233933355e-09
-4.155743760677919347e-09
-4.111306333190465330e-09
-4.063921531246675494e-09
-4.013644930470613705e-09
-3.960547352238484245e-09
-3.904686548047844886e-09
-3.846086080003215885e-09
-3.784752364518407872e-09
-3.720699023665125172e-09
-3.653950289841465905e-09
-3.584543793399046271e-09
-3.512536482670192769e-09
-3.438000905841794947e-09
-3.361045913017588240e-09
-3.281816683990115625e-09
-3.200495602863936790e-09
-3.117300778511982045e-09
-3.032475377943989185e-09
-2.946261270475500008e-09
-2.858893363165368653e-09
-2.770606795699104208e-09
-2.681658195587865624e-09
-2.592336724680933643e-09
-2.502985380892336754e-09
-2.413997385152403863e-09
-2.325812962456109144e-09
-2.238891731530090121e-09
-2.153690147162998264e-09
-2.070633153209121720e-09
-1.990092542746938026e-09
-1.912389625212544611e-09
-1.837793551072258112e-09
-1.766507141114291706e-09
-1.698642441284669964e-09
-1.634203903407606314e-09
-1.573070190917070170e-09
-1.514997784826100370e-09
-1.459640125036693500e-09
-1.406572078813329169e-09
-1.355320300505570642e-09
-1.305393786441927165e-09
-1.256306501575964250e-09
-1.207611357239153586e-09
-1.158944553153398956e-09
-1.110061317190705916e-09
-1.060856301280276294e-09
-1.011378756468911274e-09
-9.622130894547616680e-10
-9.126253330096303409e-10
-8.641867633455058609e-10
-8.170727978402083789e-10
-7.718598826461284903e-10
-7.290901269561145935e-10
-6.891943661375463067e-10
-6.524304273018352170e-10
-6.188307702480657164e-10
-5.881819562401711636e-10
-5.600469371577662229e-10
-5.338308682901609648e-10
-5.088876209829355514e-10
-4.846399241085321203e-10
-4.606960274673300433e-10
-4.369207693739520697e-10
-4.134408546683199664e-10
-3.907075516150331119e-10
-3.687854912429937030e-10
-3.484113963753315421e-10
-3.296626973931583522e-10
-3.124887725587186927e-10
-2.966265281615716897e-10
-2.817193490377774838e-10
-2.674668975896250620e-10
-2.537215634942847555e-10
-2.405034149958021200e-10
-2.279264818253225187e-10
-2.160909826025550758e-10
-2.050187020181674134e-10
-1.946485500459811845e-10
-1.848851941241535015e-10
-1.756521429025930319e-10
-1.669048105662509453e-10
-1.586265722201335805e-10
-1.508064356123334871e-10
-1.434270679067200604e-10
-1.364652084597660818e-10
-1.298899492100555305e-10
-1.236716142971503523e-10
-1.177864385812974143e-10
-1.122163145398607511e-10
-1.069464231201268387e-10
-1.019579266508599379e-10
-9.722910275300676653e-11
-9.274354897655734722e-11
-8.848889573299707661e-11
-8.445084367149197847e-11
-8.061423437823525767e-11
-7.696648569599831091e-11
-7.349633977717859593e-11
-7.019240834771740282e-11
-6.704421231996467662e-11
-6.404245625334271479e-11
-6.117873121534453000e-11
-5.844511891892383642e-11
-5.583424202059197850e-11
-5.333914317146633033e-11
-5.095324812602916388e-11
-4.867041587651665521e-11
-4.648494142586752753e-11
-4.439154466369666292e-11
-4.238536019859200164e-11
-4.046191262613670439e-11
-3.861708895584096746e-11
-3.684710160910545685e-11
-3.514845935426885971e-11
-3.351793331640249094e-11
-3.195253287134152819e-11
-3.044947996466676609e-11
-2.900618954129973468e-11
-2.762025158376019940e-11
-2.628941447156425294e-11
-2.501157154330117182e-11
-2.378474711370964739e-11
-2.260708503142511239e-11
-2.147683781662638841e-11
-2.039235533513305811e-11
-1.935207620317131303e-11
-1.835452026278831907e-11
-1.739827626188270265e-11
-1.648192667229849832e-11
-1.560433385244532261e-11
-1.476417811207039470e-11
-1.396027067377617804e-11
-1.319145898474040535e-11
-1.245663203103914706e-11
-1.175470941638645698e-11
-1.108464240158083594e-11
-1.044540937046848858e-11
-9.836013240813992153e-12
-9.255480441321060177e-12
-8.702857966695643811e-12
-8.180789115640571145e-12
-7.681025805125996692e-12
-7.206427322468352435e-12
-6.756105484433804439e-12
-6.329193766225407581e-12
-5.924836315301961555e-12
-5.542188588195758080e-12
-5.180421493056191464e-12
-4.838711887283188577e-12
-4.516258132885806929e-12
-4.212261104995779014e-12
-3.925942552023038198e-12
-3.656531182017912037e-12
-3.403273228515839248e-12
-3.165427272173454594e-12
-2.942267807787662811e-12
-2.733083889874198316e-12
-2.537181182841939355e-12
-2.353881399995050309e-12
-2.182528052414322585e-12
-2.022480809695348961e-12
-1.873119379486594970e-12
-1.733852842264131138e-12
-1.604101188427170391e-12
-1.483312111101963059e-12
-1.370954859996426713e-12
-1.266522015398480135e-12
-1.169529935192513775e-12
-1.079515966078022570e-12
-9.960384818791548629e-13
-9.186795455810717410e-13
-8.470474831520116189e-13
-7.807755009161046070e-13
-7.195163792294404842e-13
-6.629351546885141650e-13
-6.107239979150123382e-13
-5.625731500202392636e-13
-5.181879331300456752e-13
-4.772871317721257921e-13
-4.396053392607438174e-13
-4.048936713116525451e-13
-3.729203447097032234e-13
-3.434705560400509861e-13
-3.163457784700321053e-13
-2.913581113390295975e-13
-2.683482708151984930e-13
-2.471555191633077472e-13
-2.276363978170839135e-13
-2.096587591456974492e-13
-1.931008833997894348e-13
-1.778506565447270873e-13
-1.638048130024461043e-13
-1.508682414352501545e-13
-1.389484450030816059e-13
-1.279749359400569755e-13
-1.178680839731069095e-13
-1.085594416923507657e-13
-9.998596528930802146e-14
-9.208959727309212675e-14
-8.481686192357352284e-14
-7.811294109863169725e-14
-7.194403468050501615e-14
-6.626232697706779200e-14
-6.102933825648778509e-14
-5.620962821030403661e-14
-5.177055787809718274e-14
-4.767562437984662712e-14
-4.391052725065754763e-14
-4.044277830737690726e-14
-3.724889390741673079e-14
-3.430724577563944342e-14
-3.159791279053150077e-14
-2.909531188519217076e-14
-2.679758361248088987e-14
-2.468131626497236854e-14
-2.273217906619891978e-14
-2.093697291951679682e-14
-1.927499593995685500e-14
-1.775281220031757828e-14
-1.635083989563626886e-14
-1.505958508319896658e-14
-1.387030363897368005e-14
-1.276505183422698483e-14
-1.175697281172608220e-14
-1.082850549363067605e-14
-9.973362825075366486e-15
-9.174602534698212547e-15
-8.450071843612901821e-15
-7.782760220853348149e-15
-7.168148698185154263e-15
-6.588920121180330530e-15
-6.068588225881857936e-15
-5.589348782759415152e-15
-5.132192006618380404e-15
-4.726900658203231468e-15
-4.353616294781781951e-15
-4.009811162901664069e-15
-3.678207550718831271e-15
-3.387740359640875053e-15
-3.120211850487377134e-15
-2.858739585673579988e-15
-2.632987531252526786e-15
-2.409097961921735385e-15
-2.218856016081235097e-15
-2.033605908204711409e-15
-1.873020775373966682e-15
-1.725116836446786967e-15
-1.588892566593620514e-15
-1.443351853451455725e-15
-1.329379393737893578e-15
-1.209346964522855482e-15
-1.102340687092481315e-15
-1.015305748019873833e-15
-9.351427976961718939e-16
-8.438880721029056077e-16
-7.772638855516454247e-16
-7.031512652312129285e-16
-6.476433844781016457e-16
-5.882929284088139169e-16
-5.418572530781471791e-16
-4.900437482991262408e-16
-4.513664548887750727e-16
