# bin_3_4
-1.605153750385704125e-09
-1.611687180503281598e-09
-1.618452790831170880e-09
-1.625458169299338322e-09
-1.632710674935398278e-09
-1.640228548137834238e-09
-1.647993276577739095e-09
-1.656029963711976458e-09
-1.664340171011453908e-09
-1.672945803510495586e-09
-1.681849480134098486e-09
-1.691062361432218685e-09
-1.700580723079811007e-09
-1.710421692832414539e-09
-1.720593777920848274e-09
-1.731105646263195753e-09
-1.741966646440698797e-09
-1.753187213993740082e-09
-1.765435124690456558e-09
-1.777396431150733864e-09
-1.789086757675463570e-09
-1.801833969453335643e-09
-1.814988025629461230e-09
-1.828555681799340477e-09
-1.842549722916689923e-09
-1.856979482160807613e-09
-1.871851648587901377e-09
-1.887176554139939526e-09
-1.902968198798619361e-09
-1.918887925382997795e-09
-1.935985751732328313e-09
-1.953224104785654330e-09
-1.970963903458785822e-09
-1.989212944858233845e-09
-2.007981680320874078e-09
-2.027274431327102370e-09
-2.047099291383709005e-09
-2.067466534977714170e-09
-2.088390268896307618e-09
-2.109773595580511459e-09
-2.131889382339067314e-09
-2.154596013768079620e-09
-2.177661629627843716e-09
-2.201417551382872771e-09
-2.225754562594351217e-09
-2.250649555005346545e-09
-2.276147244135283869e-09
-2.302233377943492080e-09
-2.328906697182448048e-09
-2.356165838574020674e-09
-2.384005100658526768e-09
-2.412432327127573913e-09
-2.441448022530635783e-09
-2.470998607130165168e-09
-2.501159372906353635e-09
-2.531864031357309029e-09
-2.563118814659040215e-09
-2.594911963847821420e-09
-2.627116171469796159e-09
-2.660050567744554321e-09
-2.693370121250904598e-09
-2.727158980397645082e-09
-2.761406148464834978e-09
-2.796106129260954760e-09
-2.831205096342680765e-09
-2.866690756595371569e-09
-2.902536421913192620e-09
-2.938519098469645168e-09
-2.975776078275774425e-09
-3.012650191259789199e-09
-3.048877790072419042e-09
-3.086030188409735513e-09
-3.123293569809162253e-09
-3.160651556290980615e-09
-3.198048947562384152e-09
-3.235427028196760397e-09
-3.272723121587799333e-09
-3.309900307607410117e-09
-3.346885006949748445e-09
-3.378417661607347093e-09
-3.415210004131849709e-09
-3.456011240731279446e-09
-3.491544496518497210e-09
-3.526529466958857386e-09
-3.560881024408723572e-09
-3.594538384197567824e-09
-3.627405242897357964e-09
-3.659392317043027948e-09
-3.690414126005839165e-09
-3.720917559014369939e-09
-3.749202939009278031e-09
-3.776790999283453193e-09
-3.803047742046161812e-09
-3.827875334471378465e-09
-3.851166605604162920e-09
-3.872882406412088948e-09
-3.892900248736456122e-09
-3.911102911176301915e-09
-3.927301307979091179e-09
-3.941807832550006863e-09
-3.954121123579778386e-09
-3.964295693840408590e-09
-3.972261605809374419e-09
-3.977924614512275941e-09
-3.981213127531190779e-09
-3.982058174967862830e-09
-3.980438943196419645e-09
-3.976168276614505802e-09
-3.969503124083419523e-09
-3.960273493673272579e-09
-3.948375363001317709e-09
-3.934666761731039690e-09
-3.916756427644007684e-09
-3.897068078620477592e-09
-3.874814805681262213e-09
-3.850045431779804476e-09
-3.822781377933036797e-09
-3.793096171502020366e-09
-3.761051114470390228e-09
-3.726728769765715271e-09
-3.690218017198371082e-09
-3.651616376205580518e-09
-3.611025243291350811e-09
-3.568543383121015654e-09
-3.524281990530861074e-09
-3.478353017613319131e-09
-3.430829205611991960e-09
-3.381931189521266585e-09
-3.331643057265103772e-09
-3.280104292565506210e-09
-3.227407871669197896e-09
-3.173655869624339218e-09
-3.118909622135960977e-09
-3.063247020025377597e-09
-3.006736814004157135e-09
-2.949425636852116445e-09
-2.891397212848532038e-09
-2.832691509137735734e-09
-2.773359241509728231e-09
-2.713460655721684456e-09
-2.653051694733738685e-09
-2.592215322463328361e-09
-2.531024473712805630e-09
-2.469573820448455391e-09
-2.407959556613536355e-09
-2.346301290109119404e-09
-2.284714504051072641e-09
-2.223320019222551364e-09
-2.162223223212741248e-09
-2.101494769077136820e-09
-2.041194173971975124e-09
-1.981355650880329582e-09
-1.922005541508918522e-09
-1.863151596950258510e-09
-1.804796166289533412e-09
-1.746941060824860096e-09
-1.689606182243680947e-09
-1.632833312221962528e-09
-1.576685733209148169e-09
-1.521253964450175401e-09
-1.466625630898962212e-09
-1.412889693788582882e-09
-1.354987417727963548e-09
-1.308408491920253602e-09
-1.257782370253830487e-09
-1.208293520106411551e-09
-1.159984078477295258e-09
-1.112896833030437898e-09
-1.067088611754561226e-09
-1.022632204808627436e-09
-9.796057514046444776e-10
-9.380813508842150748e-10
-8.981121439799448101e-10
-8.597232403937921143e-10
-8.229161813771853371e-10
-7.876707005412881188e-10
-7.539484096419586115e-10
-7.216919944148858443e-10
-6.908327415518372407e-10
-6.612878219781741106e-10
-6.329609223175100793e-10
-6.057487311210410027e-10
-5.795485212091214926e-10
-5.542716471890304834e-10
-5.298421074117942491e-10
-5.061966771440497120e-10
-4.832788922009494847e-10
-4.610341044274225244e-10
-4.394125285937595462e-10
-4.183836154066306994e-10
-3.979472379474512593e-10
-3.781346740236988415e-10
-3.590084159956603000e-10
-3.406592089308169322e-10
-3.231917931102815726e-10
-3.067029740667248949e-10
-2.912513334787007583e-10
-2.768373548792955840e-10
-2.633993655730720255e-10
-2.508277450932797991e-10
-2.389884305963073224e-10
-2.277445590218233075e-10
-2.169768318418460299e-10
-2.066020161939012588e-10
-1.965824570626480208e-10
-1.869261539242003326e-10
-1.776641467077169518e-10
-1.688378371038075162e-10
-1.604773124549619228e-10
-1.525937335482699565e-10
-1.451772906732889160e-10
-1.381939428827051151e-10
-1.311291103964027925e-10
-1.253200964938273593e-10
-1.193344132181752951e-10
-1.136184831773293262e-10
-1.081710700619492592e-10
-1.029961865476391526e-10
-9.808844018116636906e-11
-9.343062468576252476e-11
-8.900361500186132673e-11
-8.479157089817161830e-11
-8.078468866699254675e-11
-7.697366917167635866e-11
-7.334708451688272186e-11
-6.989164463052967563e-11
-6.659754303005588372e-11
-6.345905326325421965e-11
-6.047073669709005715e-11
-5.762314332964630084e-11
-5.490623648979912761e-11
-5.231314023449156543e-11
-4.983896878023182946e-11
-4.747838186659772972e-11
-4.522480363622929002e-11
-4.307285010847630092e-11
-4.101730247108416448e-11
-3.905386146266711572e-11
-3.717819808861649365e-11
-3.538584860813133519e-11
-3.367275421477095640e-11
-3.203541339732727145e-11
-3.047047874548103408e-11
-2.897465729982383447e-11
-2.754489598064063102e-11
-2.617837232484380199e-11
-2.487234208074566379e-11
-2.362432041733091157e-11
-2.243180138622647648e-11
-2.129245269189975848e-11
-2.020405403806670276e-11
-1.916449977689265270e-11
-1.817178529330598937e-11
-1.722400611976727283e-11
-1.631934660046745639e-11
-1.545607422516680171e-11
-1.463253311699078155e-11
-1.384713658133577208e-11
-1.309836356138010607e-11
-1.238475194706069612e-11
-1.170489587611884456e-11
-1.105744253782539948e-11
-1.044108672930472346e-11
-9.854571162319936703e-12
-9.296685653657198895e-12
-8.766258718395856552e-12
-8.262161851930810665e-12
-7.783303577774314710e-12
-7.328631395544269295e-12
-6.867073829413707640e-12
-6.459401392880904513e-12
-6.072883505437196572e-12
-5.706634749113783213e-12
-5.359767354301694187e-12
-5.031402969557475342e-12
-4.720715609852881478e-12
-4.426916880031616979e-12
-4.149257745272534710e-12
-3.886979035478277195e-12
-3.639351074498610663e-12
-3.405693517921454633e-12
-3.185363393450929184e-12
-2.977705930922458000e-12
-2.782094464327023126e-12
-2.597948623269761782e-12
-2.424712305908787183e-12
-2.261821293833446175e-12
-2.108749149729779512e-12
-1.965005359138512548e-12
-1.830101286297159415e-12
-1.703564549132193494e-12
-1.584959113017874069e-12
-1.473860390215030695e-12
-1.369850761191426424e-12
-1.272546832174645201e-12
-1.181577852511223880e-12
-1.096579162592631586e-12
-1.017213664334207131e-12
-9.431546228999052711e-13
-8.740880989733124288e-13
-8.097112554502237926e-13
-7.497584446404211941e-13
-6.939524432368895098e-13
-6.420389774985546494e-13
-5.937736974967939655e-13
-5.489293658472855055e-13
-5.072854924517014323e-13
-4.686366629754278150e-13
-4.327861931307379700e-13
-3.995502034158858223e-13
-3.687542386563233629e-13
-3.402350862610635438e-13
-3.138380023059828099e-13
-2.894188799973044861e-13
-2.668412621652920217e-13
-2.459804135458866958e-13
-2.267152093479201883e-13
-2.089210534858289761e-13
-1.925178465611501522e-13
-1.773904032965271080e-13
-1.634445157247213988e-13
-1.505903797316577169e-13
-1.387442470205921439e-13
-1.278283615018190671e-13
-1.177704150412728434e-13
-1.085033763534062677e-13
-9.996528626942899766e-14
-9.209894676176428466e-14
-8.485158803070325281e-14
-7.817454776687333698e-14
-7.200808194669613106e-14
-6.634177709776050271e-14
-6.112139419520702375e-14
-5.631183858829364399e-14
-5.188077684617977332e-14
-4.779841958265056578e-14
-4.403732387710043440e-14
-4.057220544257513059e-14
-3.737977167724359148e-14
-3.443856198981356819e-14
-3.171078865175064618e-14
-2.921568398499461124e-14
-2.691692358569707981e-14
-2.479905591257217274e-14
-2.284784532480663200e-14
-2.105017518439575315e-14
-1.939396162710669308e-14
-1.786807211035499261e-14
-1.646225073423680813e-14
-1.514648691768964915e-14
-1.395481399871406613e-14
-1.285690779970516768e-14
-1.184538942543596624e-14
-1.091346100525276707e-14
-1.005485972543620883e-14
-9.263815819235895806e-15
-8.509541066366604911e-15
-7.840084227226223274e-15
-7.223300547235229044e-15
-6.655045377003055082e-15
-6.131500206907472278e-15
-5.649146927744882997e-15
-5.216036543168598746e-15
-4.805686565187315836e-15
-4.405493849736650442e-15
-4.058918744033652021e-15
-3.739611587961890828e-15
-3.445426609905730212e-15
-3.125546894227584717e-15
-2.879692120353421590e-15
-2.653178641929359420e-15
-2.444484707678707538e-15
-2.252208420562766917e-15
-2.066287569457139787e-15
-1.903757663677849423e-15
-1.730909196667726012e-15
-1.594768792782247626e-15
-1.469337425090567542e-15
-1.333434440873052327e-15
-1.228566829141852793e-15
-1.111792074708852234e-15
-1.024365927482329380e-15
-9.438155763646092905e-16
-8.520555678751295844e-16
-7.850647790008550151e-16
-7.233416781887793345e-16
-6.515275946894894555e-16
-6.003129467519504668e-16
-5.397003216445295680e-16
-4.972854820135581580e-16
-4.462604071135539078e-16
-4.111979898653404309e-16
-3.685413062485030187e-16
-3.395936627181961095e-16
-3.032444020419343758e-16
-2.794338798104769842e-16
-2.494699818504642489e-16
-2.298890977343682962e-16
-2.055347551735804267e-16
-1.894084668531632801e-16
