# bin_4_1
-6.358919818817344127e-09
-6.392290954878642133e-09
-6.426911543894392301e-09
-6.462826904865100770e-09
-6.500105305090168350e-09
-6.538741480499527424e-09
-6.578815052847906240e-09
-6.620374107905635628e-09
-6.663470505810888486e-09
-6.708159062410360128e-09
-6.754501256475643579e-09
-6.802546344409752038e-09
-6.852752107377747739e-09
-6.903980105856248906e-09
-6.957490130180860653e-09
-7.012941186960390947e-09
-7.070401758491083068e-09
-7.129938522378414660e-09
-7.191547157983967505e-09
-7.255459001380447994e-09
-7.321693484149897684e-09
-7.390232525132264118e-09
-7.461205967037945390e-09
-7.534691298931741076e-09
-7.610771054940250281e-09
-7.689516089503211340e-09
-7.771015371254847222e-09
-7.855353286645213665e-09
-7.942661393221989399e-09
-8.032941318657235086e-09
-8.126319238098336217e-09
-8.222841278242295404e-09
-8.322705067811604620e-09
-8.425938625606221995e-09
-8.532645756905090121e-09
-8.642923343216372450e-09
-8.756878039823589273e-09
-8.874897190188893852e-09
-8.996067403165702855e-09
-9.121611399086480685e-09
-9.251341502758817005e-09
-9.385137081310338812e-09
-9.523460330349056295e-09
-9.665689432219161895e-09
-9.812646288514393380e-09
-9.964153454504078704e-09
-1.012038263401203906e-08
-1.028140861376955198e-08
-1.044733298120842463e-08
-1.061825533244482761e-08
-1.079427228946585459e-08
-1.097548655198483089e-08
-1.116202802437105360e-08
-1.135387022616961588e-08
-1.155335537431157198e-08
-1.175420683134074875e-08
-1.196279809287920856e-08
-1.217694475191987648e-08
-1.239723570736816503e-08
-1.262322057532091831e-08
-1.285514132970747074e-08
-1.309303623605715211e-08
-1.333707319546290351e-08
-1.358709958983407086e-08
-1.384314859378649850e-08
-1.410541986546265121e-08
-1.437383422055115537e-08
-1.464820353386752405e-08
-1.492882593776373307e-08
-1.521589013150538561e-08
-1.550874150216735756e-08
-1.580764882845358591e-08
-1.611247512121807262e-08
-1.642307732173901858e-08
-1.673951138104668102e-08
-1.706157880992209655e-08
-1.738912908185590331e-08
-1.772206988194501520e-08
-1.805997798025722423e-08
-1.840299892554056533e-08
-1.875076536805980199e-08
-1.910485589866451366e-08
-1.945945269911976348e-08
-1.981980438370426266e-08
-2.018374447263937688e-08
-2.055101539473101316e-08
-2.092091016472308981e-08
-2.129333912420211165e-08
-2.166774808369666384e-08
-2.204365525123015870e-08
-2.242269329000114814e-08
-2.279777757692568297e-08
-2.317476609383963917e-08
-2.355096727266280051e-08
-2.392582056104527672e-08
-2.429849979862518026e-08
-2.466838622030219551e-08
-2.503451157431966701e-08
-2.539593082116977766e-08
-2.575513221506646997e-08
-2.610481303220659920e-08
-2.644725806109110124e-08
-2.677873372830219369e-08
-2.710375954199101661e-08
-2.742199014693263394e-08
-2.772598210959721963e-08
-2.801378436795929398e-08
-2.829173206161682950e-08
-2.855507263254581816e-08
-2.880262870689560820e-08
-2.903313254923855150e-08
-2.924544970376627003e-08
-2.943832216165079385e-08
-2.961046569794302317e-08
-2.976063568328723820e-08
-2.989124857777405659e-08
-2.999379043725449075e-08
-3.006749286709147344e-08
-3.011816574144348277e-08
-3.014133397176319615e-08
-3.013611539164767914e-08
-3.010150477570278856e-08
-3.003683566894829010e-08
-2.994148831675696368e-08
-2.981505273188147431e-08
-2.965714610024816152e-08
-2.946761035960185988e-08
-2.924623549534184811e-08
-2.899312210242670091e-08
-2.870873250207399155e-08
-2.839364962967375467e-08
-2.804867728121105885e-08
-2.767477816077299110e-08
-2.727288818156226279e-08
-2.684457835210413929e-08
-2.639129273563206571e-08
-2.591441608787501942e-08
-2.541583348307476196e-08
-2.489726255553347568e-08
-2.436074218313375036e-08
-2.380836853804809846e-08
-2.324210677491191136e-08
-2.266411585737240440e-08
-2.207675959048888464e-08
-2.148238925165433399e-08
-2.088330884776910958e-08
-2.028156990392915699e-08
-1.967915599361431505e-08
-1.907776455850618351e-08
-1.847918698864655198e-08
-1.788495590053164405e-08
-1.729655822219945713e-08
-1.671544677699924841e-08
-1.614278661876148447e-08
-1.557981057812504365e-08
-1.502757127581261152e-08
-1.448694479377265006e-08
-1.395874531732171061e-08
-1.344367227573180220e-08
-1.294221946713364249e-08
-1.245473846691699483e-08
-1.198133912982671720e-08
-1.152187541483892257e-08
-1.107599562614936587e-08
-1.064316773734341313e-08
-1.022275082901819396e-08
-9.814046301900335889e-09
-9.416300471432670272e-09
-9.028744411920907344e-09
-8.650678112022400980e-09
-8.281416097779607483e-09
-7.920313979850211103e-09
-7.566917888501155010e-09
-7.221078695998882757e-09
-6.882868966563867330e-09
-6.552570289876422211e-09
-6.230654379952264086e-09
-5.917950837887249028e-09
-5.615461486474189150e-09
-5.324415223032671507e-09
-5.045949520373720474e-09
-4.781157148026781723e-09
-4.530854856426762624e-09
-4.295483861115369478e-09
-4.074887893527474589e-09
-3.868214105269731820e-09
-3.674130805266820110e-09
-3.491028741561074134e-09
-3.317230953014687063e-09
-3.151241359145680653e-09
-2.991968301335135925e-09
-2.838914115750285800e-09
-2.692189715158404734e-09
-2.552244455062178713e-09
-2.419523424433326884e-09
-2.294206198534198017e-09
-2.176143212899477659e-09
-2.064954673270529359e-09
-1.960182309777533806e-09
-1.861441062848326855e-09
-1.768437696354903558e-09
-1.680897987722641075e-09
-1.598443998613764766e-09
-1.520607427905891479e-09
-1.446929757308853545e-09
-1.377097113504179108e-09
-1.310961263478980848e-09
-1.248465782205737643e-09
-1.189589165901174738e-09
-1.134204881523593376e-09
-1.082061537736480141e-09
-1.032804900867532242e-09
-9.860849572896167226e-10
-9.417359613494261498e-10
-8.997282116439273160e-10
-8.600216560919524660e-10
-8.224751460500762369e-10
-7.868619076136086850e-10
-7.529979348776931662e-10
-7.207915273802898848e-10
-6.901728594079580163e-10
-6.610438798396497359e-10
-6.332896722216069168e-10
-6.068100088589381968e-10
-5.815288578236703811e-10
-5.573748475194154220e-10
-5.342710338206532550e-10
-5.121458445937993464e-10
-4.909394138072727052e-10
-4.705980008899039521e-10
-4.510700834173700069e-10
-4.323075479854839990e-10
-4.142662739071239176e-10
-3.969058975538324000e-10
-3.801901827400372605e-10
-3.640863861263394317e-10
-3.485641982860123173e-10
-3.335948343715458213e-10
-3.191542348971522656e-10
-3.052186567214783622e-10
-2.917675020650075913e-10
-2.787820198909266675e-10
-2.662451073292025140e-10
-2.541413242479851054e-10
-2.424566704829842576e-10
-2.311783283137751594e-10
-2.202945427963364119e-10
-2.097945008600036497e-10
-1.996681924593719198e-10
-1.899063008183520136e-10
-1.805000820765421038e-10
-1.714412828102141380e-10
-1.627220400231452595e-10
-1.543348179848966136e-10
-1.462723289596825930e-10
-1.385274743817184309e-10
-1.310932897583544957e-10
-1.239628950749298989e-10
-1.171294590416401087e-10
-1.105861593027154197e-10
-1.043261601075266778e-10
-9.834259136326679247e-11
-9.262852639396950120e-11
-8.717698073156422504e-11
-8.198090350805997577e-11
-7.703392375524333910e-11
-7.232729914893212004e-11
-6.785456450005001715e-11
-6.360840418278014524e-11
-5.958145491218431785e-11
-5.576631569898899239e-11
-5.215555974331526409e-11
-4.874175280719965887e-11
-4.551746805782309821e-11
-4.247530202575951631e-11
-3.960988306620512230e-11
-3.690978270359857717e-11
-3.436991699785187386e-11
-3.198314165849739209e-11
-2.974243703216452081e-11
-2.764088337633253746e-11
-2.567172505929846255e-11
-2.382834451469433447e-11
-2.210428534247213323e-11
-2.049328289201364889e-11
-1.898881435558585317e-11
-1.758584992371793325e-11
-1.627825214578195893e-11
-1.506053386810815698e-11
-1.392741153006202546e-11
-1.287381563429013298e-11
-1.189489863834452531e-11
-1.098603145655658313e-11
-1.014280105702977642e-11
-9.360991027842515567e-12
-8.636605874441656250e-12
-7.965836102353898825e-12
-7.345084705915784430e-12
-6.770957216750814995e-12
-6.240253003924258631e-12
-5.749953963265522554e-12
-5.297230448371885093e-12
-4.879421585788166212e-12
-4.494012694450480910e-12
-4.138625549556670332e-12
-3.811053803388766892e-12
-3.509209077334796866e-12
-3.231148285103649527e-12
-2.975048935654203941e-12
-2.739206300836209606e-12
-2.522034633899783787e-12
-2.322065463481555038e-12
-2.137941695105081427e-12
-1.968401473012104463e-12
-1.812310104484549630e-12
-1.668593240298608802e-12
-1.536270647323350417e-12
-1.414439547205231281e-12
-1.302268542663472245e-12
-1.198991929730652208e-12
-1.103893457787644779e-12
-1.016347293748900451e-12
-9.357436566118807133e-13
-8.615322277738229945e-13
-7.932061617263159363e-13
-7.302987549201959091e-13
-6.723803168830063952e-13
-6.190432410736913686e-13
-5.699481331603448890e-13
-5.247466358761105034e-13
-4.831299701066747194e-13
-4.453517962281107255e-13
-4.100320435530777393e-13
-3.775134356930184378e-13
-3.475738138010398232e-13
-3.200086347518914729e-13
-2.946295869919040481e-13
-2.712632971133487130e-13
-2.497264329853934181e-13
-2.299213042460581223e-13
-2.116868765896631129e-13
-1.948985757200535973e-13
-1.794417082831637916e-13
-1.652106785512956596e-13
-1.520791367814846123e-13
-1.400181224936790656e-13
-1.289136324282099112e-13
-1.186898106213155009e-13
-1.092768200673444692e-13
-1.006103547496638703e-13
-9.259784587920310617e-14
-8.525413089437318827e-14
-7.849283477053712695e-14
-7.226776447265339784e-14
-6.653639120925246062e-14
-6.122041860728644668e-14
-5.636515569240696313e-14
-5.189495214486602391e-14
-4.777926877599610341e-14
-4.398998842082912695e-14
-4.045878347124872111e-14
-3.725004687806356428e-14
-3.429579243769545632e-14
-3.157583895422879552e-14
-2.902391962576320651e-14
-2.672204831219470326e-14
-2.460273866024654087e-14
-2.265151155309150887e-14
-2.080155197020275953e-14
-1.915177166141160870e-14
-1.763283771481063315e-14
-1.616695102256246827e-14
-1.488471552660128768e-14
-1.370417681690196015e-14
-1.261726890196904594e-14
-1.153763410886210023e-14
-1.062252978480981146e-14
-9.780006698099137826e-15
-8.898905175759401051e-15
-8.193058852489866752e-15
-7.406802895382970519e-15
-6.819274314153314095e-15
-6.278351497546249412e-15
-5.629216935467176198e-15
-5.182661883522832853e-15
-4.771531022082425024e-15
-4.202754755345247182e-15
-3.869330195837523435e-15
-3.562359487768638950e-15
-3.160926025580021218e-15
-2.751474181410316214e-15
-2.533166842209052595e-15
-2.176940632761712212e-15
-2.004213783477229441e-15
-1.689392693154237387e-15
-1.555349299612136467e-15
-1.309986147211816210e-15
-1.206049261996915080e-15
-9.967786071687928559e-16
-9.176982286124155840e-16
