# bin_1_2
-1.548725422898877364e-09
-1.556227943074130757e-09
-1.564005671898258949e-09
-1.572076359701934701e-09
-1.580431912695745344e-09
-1.589091024019713484e-09
-1.598064980744972938e-09
-1.607363479354765945e-09
-1.616995665678815971e-09
-1.626978257062636567e-09
-1.637318882679822472e-09
-1.648028871169890098e-09
-1.659120210189879785e-09
-1.670605822894126163e-09
-1.682495180990140740e-09
-1.694892690683962681e-09
-1.707540832458702818e-09
-1.720723336099572943e-09
-1.734363231826096236e-09
-1.748474320168916354e-09
-1.763054439778999215e-09
-1.778157266638798552e-09
-1.793774289516241392e-09
-1.809911433592095057e-09
-1.826592825643273617e-09
-1.843830706964101041e-09
-1.861642257354332843e-09
-1.880042956828866229e-09
-1.899061809147055455e-09
-1.918689386351438347e-09
-1.938952342667924128e-09
-1.959856057254992160e-09
-1.981439963468569688e-09
-2.003708244437953356e-09
-2.026677048216524325e-09
-2.050362284290014424e-09
-2.074756027444899756e-09
-2.099950808567931634e-09
-2.125911431959130249e-09
-2.152643176553019918e-09
-2.180167744722176207e-09
-2.208752436682506499e-09
-2.237565788677664751e-09
-2.267557004949627773e-09
-2.298402102541706500e-09
-2.330103884804737694e-09
-2.362695573690671892e-09
-2.396181516130178648e-09
-2.430573492524760628e-09
-2.465882183487254042e-09
-2.502116798292686242e-09
-2.539288226766390513e-09
-2.577405267225381781e-09
-2.616464574919099348e-09
-2.656483150838243412e-09
-2.697467037951555289e-09
-2.739451138825964976e-09
-2.782376880499388188e-09
-2.826268986079010714e-09
-2.871143514689220506e-09
-2.918266981379982400e-09
-2.963729679955404503e-09
-3.011434616400560494e-09
-3.060098801295423404e-09
-3.109683000363083571e-09
-3.160329905969563909e-09
-3.211564369949301117e-09
-3.263827465539368151e-09
-3.316929241581367051e-09
-3.370846443988301429e-09
-3.425553479638958221e-09
-3.481020988087634633e-09
-3.537213013225785184e-09
-3.594071416040102665e-09
-3.651551915263678110e-09
-3.709612734162742939e-09
-3.768204742907679953e-09
-3.827260755392491854e-09
-3.886737343052773228e-09
-3.946490084321187830e-09
-4.006535168575579571e-09
-4.066779018364799245e-09
-4.127204058367994021e-09
-4.187570152159516591e-09
-4.247865946104389271e-09
-4.307956397498257347e-09
-4.367783764063281760e-09
-4.427224885482709194e-09
-4.486168153890202563e-09
-4.544486344683480623e-09
-4.602041399504391835e-09
-4.658713541356944698e-09
-4.714388905501993450e-09
-4.768922680420513865e-09
-4.822190700777058935e-09
-4.873999350595174774e-09
-4.924197926648875130e-09
-4.972645219071149785e-09
-5.019166491702526738e-09
-5.063664800560757883e-09
-5.105850048112728411e-09
-5.145603683670309513e-09
-5.182735030957834018e-09
-5.217071834382894790e-09
-5.248438032721924904e-09
-5.276668407672518781e-09
-5.301530260057566718e-09
-5.322984389121693908e-09
-5.340811386432066520e-09
-5.354828435329043310e-09
-5.364873710581592020e-09
-5.370820650782134496e-09
-5.372551757860805475e-09
-5.369936049199518037e-09
-5.362855239521673836e-09
-5.351206606754061971e-09
-5.334879981568894030e-09
-5.313836275319224691e-09
-5.288017467373131840e-09
-5.257387881851403345e-09
-5.221978044455788850e-09
-5.181687005521979006e-09
-5.136593689824408208e-09
-5.086736331154947768e-09
-5.032195855645473326e-09
-4.973024872055509327e-09
-4.909416225617621255e-09
-4.841459230078253386e-09
-4.769339304484227348e-09
-4.693242572415510791e-09
-4.613401721154149416e-09
-4.530068724380064381e-09
-4.443506794760680916e-09
-4.353980168453634261e-09
-4.261850619116388705e-09
-4.167415916745821105e-09
-4.071017623913040770e-09
-3.972918840751513614e-09
-3.873445307131391085e-09
-3.772968764901622406e-09
-3.671749012740635275e-09
-3.570159326338849514e-09
-3.468485625436985181e-09
-3.367013558875426942e-09
-3.266033460384362549e-09
-3.165772595588526596e-09
-3.066450419983482551e-09
-2.968357328091447177e-09
-2.871622065002414594e-09
-2.776683932260505428e-09
-2.682759847548919401e-09
-2.590853527880392911e-09
-2.500715455561163611e-09
-2.412369105374060232e-09
-2.325840969202649881e-09
-2.241052266708801588e-09
-2.157986529653215240e-09
-2.076578337585293453e-09
-1.996864780615259279e-09
-1.918772098755600891e-09
-1.842306635180259223e-09
-1.767497072878547714e-09
-1.694375690286305745e-09
-1.623008650259887065e-09
-1.553507315960721144e-09
-1.485935673081174870e-09
-1.420400298558168635e-09
-1.356992649619530111e-09
-1.295845436116398999e-09
-1.236992816022945430e-09
-1.180479991768810967e-09
-1.126288870156049046e-09
-1.074358906619295780e-09
-1.024598600707294355e-09
-9.768799939799559410e-10
-9.310381337735988499e-10
-8.869112568711009481e-10
-8.443649690224238696e-10
-8.032706144047284759e-10
-7.635683342973132828e-10
-7.252630981497943469e-10
-6.884102059678811263e-10
-6.531062068455694849e-10
-6.194643135311358258e-10
-5.875615619354385483e-10
-5.574319975508574041e-10
-5.290489519323694164e-10
-5.023333718122731890e-10
-4.771766389897481098e-10
-4.534541548223389458e-10
-4.310395032309682360e-10
-4.098195090693214907e-10
-3.896831424455688598e-10
-3.705615187471453776e-10
-3.523742888708711429e-10
-3.350668892252511747e-10
-3.185963836417433692e-10
-3.029395827611409623e-10
-2.880906642180774371e-10
-2.740514418431275670e-10
-2.608136326299071144e-10
-2.483523650990256837e-10
-2.366215306863022390e-10
-2.255650460751740183e-10
-2.151233808256360229e-10
-2.052388775962138960e-10
-1.958570557058655242e-10
-1.869391539273653147e-10
-1.784651827065787159e-10
-1.704277584678132989e-10
-1.628206159320350474e-10
-1.556250133676897116e-10
-1.488065886015738690e-10
-1.423272052100760585e-10
-1.361575147099039512e-10
-1.302805584886348073e-10
-1.246858261980767912e-10
-1.193603150484111811e-10
-1.142849783658266840e-10
-1.094396925186057598e-10
-1.048088192168321832e-10
-1.003810762633818235e-10
-9.614605826764170398e-11
-9.209217911542090498e-11
-8.820751796945211679e-11
-8.448194455855023156e-11
-8.090702593748487902e-11
-7.747417072818149948e-11
-7.417496019362934061e-11
-7.100252283371565827e-11
-6.795089120326081641e-11
-6.501411801981811263e-11
-6.218645987136404996e-11
-5.946272454248108807e-11
-5.683837244930477093e-11
-5.430935259137547778e-11
-5.187188551064819631e-11
-4.952242912700449102e-11
-4.725770750320599530e-11
-4.507472583382802303e-11
-4.297075286382578885e-11
-4.094324972380618197e-11
-3.898984217983532571e-11
-3.710833844620946150e-11
-3.529670322364653490e-11
-3.355302127286285274e-11
-3.187548561117851456e-11
-3.026238275857705002e-11
-2.871207539627467856e-11
-2.722299022672529260e-11
-2.579360155263366427e-11
-2.442258017339295167e-11
-2.310815199591629109e-11
-2.184905002668501951e-11
-2.064385900943859353e-11
-1.949117490872811098e-11
-1.838960085289727886e-11
-1.733774254285403743e-11
-1.633420729044231151e-11
-1.537760067807314219e-11
-1.446652671924277314e-11
-1.359958795344200177e-11
-1.277538385282760165e-11
-1.199251494051640638e-11
-1.124958240889476641e-11
-1.054518936459223366e-11
-9.877945126773326139e-12
-9.246464907324018868e-12
-8.649699881470616421e-12
-8.085614476842427356e-12
-7.553212944813735048e-12
-7.051169732748115148e-12
-6.578174880164535695e-12
-6.132943153786868507e-12
-5.714213397790713359e-12
-5.320750962701100281e-12
-4.951350818728714002e-12
-4.604837610384852555e-12
-4.280066297694143410e-12
-3.975928512469492416e-12
-3.691344564275886607e-12
-3.425275062510518784e-12
-3.176715004441835651e-12
-2.944693249807167058e-12
-2.728606563764857361e-12
-2.526888898545296386e-12
-2.339013727560735774e-12
-2.164167563707347110e-12
-2.001553766736733309e-12
-1.850428139297778468e-12
-1.710069416191752580e-12
-1.579798486096337840e-12
-1.458966068842777661e-12
-1.346956679192154017e-12
-1.243185243533720702e-12
-1.147097757765607682e-12
-1.058545055515154980e-12
-9.762590242297181094e-13
-9.001748243924840540e-13
-8.298500536435766850e-13
-7.648759144295173543e-13
-7.048723407565039890e-13
-6.494773400059776467e-13
-5.983565324733188457e-13
-5.511923740682049252e-13
-5.076959146956212960e-13
-4.675904582594138523e-13
-4.306240229376006235e-13
-3.965577500542406039e-13
-3.651724867143005667e-13
-3.362620311577567240e-13
-3.096345794622300855e-13
-2.851118565185072445e-13
-2.625289110216434337e-13
-2.417329594325355136e-13
-2.225831478884126694e-13
-2.049493986788393406e-13
-1.887043842198405265e-13
-1.737534426618886464e-13
-1.599866550059040728e-13
-1.473103352996786420e-13
-1.356381864835478813e-13
-1.248907343609206436e-13
-1.149947842565180478e-13
-1.058829016464594209e-13
-9.749297778810995714e-14
-8.976781802320450810e-14
-8.265475876748736432e-14
-7.610530817937265920e-14
-7.007481423264653138e-14
-6.451243458919759567e-14
-5.940052285505563617e-14
-5.469366912885072955e-14
-5.035977858452795895e-14
-4.636929924742491234e-14
-4.269501981987397882e-14
-3.931188915092151660e-14
-3.619683697195920198e-14
-3.332862025049357682e-14
-3.068767964943229092e-14
-2.824305426910356263e-14
-2.600508469109651751e-14
-2.394445274813034749e-14
-2.204710693925487826e-14
-2.030010910971020425e-14
-1.869154473425555901e-14
-1.721044362973109053e-14
-1.584670533256278656e-14
-1.459103063950822869e-14
-1.341987716565515566e-14
-1.235649631806237795e-14
-1.137737897757798687e-14
-1.047584761550580702e-14
-9.645753961309454945e-15
-8.881437192508119276e-15
-8.177685068039860377e-15
-7.510118318965423273e-15
-6.915017296853718794e-15
-6.367072495609780688e-15
-5.862547051051154313e-15
-5.398000260101108011e-15
-4.970264145276073382e-15
-4.550587529355818655e-15
-4.189986431921459197e-15
-3.857960251414997193e-15
-3.552244643478512794e-15
-3.270755017911770830e-15
-3.011571616069650275e-15
-2.741770006705558671e-15
-2.524491762142140946e-15
-2.324432470357702800e-15
-2.140227596136277328e-15
-1.970620800011061324e-15
-1.797817667153698069e-15
-1.655341859501393419e-15
-1.498323822482758617e-15
-1.379574910428949384e-15
-1.270237432105007658e-15
-1.141691627553964715e-15
-1.051200657694183124e-15
-9.371435717169776778e-16
-8.628594968054269792e-16
-7.944639782753302343e-16
-7.000506362365174696e-16
-6.445558368913803276e-16
-5.934602854569294680e-16
-5.166760917189979832e-16
-4.757152191985714954e-16
-4.079008467206552984e-16
-3.755622173877556224e-16
-3.164116651350731957e-16
-2.913262495947525658e-16
-2.411014947069172098e-16
-2.219876962508462552e-16
-1.817654632700254182e-16
-1.673571290699934352e-16
-1.380254626446988084e-16
-1.270859850001200236e-16
-1.045248330819923023e-16
-9.624227504228973271e-17
