# bin_4_2
-2.971424195588272732e-08
-2.990186802354625494e-08
-3.009682290082699489e-08
-3.029939086353548249e-08
-3.050986597566909459e-08
-3.072855389548524009e-08
-3.095577248516751143e-08
-3.119185022532017148e-08
-3.143712950090568215e-08
-3.169196475779007070e-08
-3.195672374483840953e-08
-3.223178895759751340e-08
-3.251755566828574252e-08
-3.281443597029228995e-08
-3.312285512629235598e-08
-3.344325665776148235e-08
-3.377609814777364158e-08
-3.412185670829363549e-08
-3.448102463268684998e-08
-3.485411478194778814e-08
-3.524165706264877233e-08
-3.564420183897330895e-08
-3.606232000148910214e-08
-3.649660164509409312e-08
-3.694766079788494428e-08
-3.741613208817927778e-08
-3.790267288109938816e-08
-3.840796624149960636e-08
-3.893271823098076088e-08
-3.947765977196277132e-08
-4.004354916459502833e-08
-4.063117163022689692e-08
-4.124133925693999070e-08
-4.187489278782693383e-08
-4.253270271873411617e-08
-4.321567055017446366e-08
-4.392472852494848103e-08
-4.466084080178289275e-08
-4.542500463904951217e-08
-4.621825133599907864e-08
-4.704164704529003967e-08
-4.789629347492374854e-08
-4.878332884130186226e-08
-4.970392876367084628e-08
-5.065930741006746229e-08
-5.165071840176215277e-08
-5.267945555144243777e-08
-5.374685371784579254e-08
-5.485428970594948406e-08
-5.600318326676853089e-08
-5.719499793071585116e-08
-5.843124143137723350e-08
-5.971346607362723687e-08
-6.104326835709373029e-08
-6.242229024871636997e-08
-6.385222175099162941e-08
-6.533480050825448165e-08
-6.687181149655749530e-08
-6.846508312627778402e-08
-7.011649464630197691e-08
-7.182797555128113834e-08
-7.360149836788650454e-08
-7.543907839998463752e-08
-7.734278584728281609e-08
-7.931472953210715838e-08
-8.135705811377280752e-08
-8.347197569107871992e-08
-8.566170882890717267e-08
-8.792853686517237329e-08
-9.027477045872049188e-08
-9.270274863407750092e-08
-9.521485549714890153e-08
-9.781348149832062822e-08
-1.005010640365560775e-07
-1.032800277098363484e-07
-1.061528397186124649e-07
-1.091219444341403559e-07
-1.121898148852888604e-07
-1.153588988015464390e-07
-1.186316401295492333e-07
-1.220104719537598198e-07
-1.254977687772546993e-07
-1.290959085147825173e-07
-1.328071809997135184e-07
-1.366338375215221780e-07
-1.405780675966612922e-07
-1.446419441406461295e-07
-1.488274803304022549e-07
-1.531365660532900098e-07
-1.575709428356835825e-07
-1.621322484374616917e-07
-1.668219564823558381e-07
-1.716413468158785255e-07
-1.765915260105397353e-07
-1.816734083815383803e-07
-1.868876472421175278e-07
-1.922346450356017310e-07
-1.977145618669983770e-07
-2.033272501610794996e-07
-2.090722192289195028e-07
-2.149486498903000770e-07
-2.209553493762481749e-07
-2.270906287042566028e-07
-2.333524282598323608e-07
-2.397386488368193385e-07
-2.462459689906679339e-07
-2.528692901059542719e-07
-2.596052903619722714e-07
-2.664563063834629446e-07
-2.734086861977350331e-07
-2.804131652121178030e-07
-2.874302046763652043e-07
-2.944819893782997267e-07
-3.016258784383687311e-07
-3.088805204785950863e-07
-3.162245169025609653e-07
-3.236316649227008302e-07
-3.310784178863736562e-07
-3.385438109936977240e-07
-3.460107198883091542e-07
-3.534644187712373442e-07
-3.608893603153593714e-07
-3.682681095159652205e-07
-3.755819185653405483e-07
-3.828109236950236579e-07
-3.899340506655216471e-07
-3.969289924549856975e-07
-4.037722505593921829e-07
-4.104390932589348552e-07
-4.169035404518059557e-07
-4.231383693179055226e-07
-4.291150461746215558e-07
-4.348034454640199534e-07
-4.401717071260514215e-07
-4.451867240335156174e-07
-4.498157215491709292e-07
-4.540279985337658985e-07
-4.577911239721846815e-07
-4.610626219218452850e-07
-4.637950391461310910e-07
-4.659548446433267734e-07
-4.675412149505357937e-07
-4.685811098514285492e-07
-4.690736008543286408e-07
-4.689485867072136749e-07
-4.681018213360045807e-07
-4.664533668769048137e-07
-4.639765857654419721e-07
-4.606782572895229520e-07
-4.565434121376160925e-07
-4.515315851519568104e-07
-4.456284018520679466e-07
-4.388717072808900053e-07
-4.313411901002593976e-07
-4.231270428453467903e-07
-4.142987848830118697e-07
-4.048962746704374463e-07
-3.949398305780251103e-07
-3.844504277357715617e-07
-3.734689884351034113e-07
-3.620667627078450183e-07
-3.503477461913294830e-07
-3.384415922876985618e-07
-3.264890049979830006e-07
-3.146262361456806773e-07
-3.029758558690445569e-07
-2.916421756616634774e-07
-2.807105375584713937e-07
-2.702568663331555807e-07
-2.603608225689206382e-07
-2.511017168145971403e-07
-2.425382251829757065e-07
-2.346851596200198666e-07
-2.275027346168016732e-07
-2.209097596256480852e-07
-2.148027205990980503e-07
-2.090650616107597068e-07
-2.035666306295182681e-07
-1.981576637255486382e-07
-1.926638346003007901e-07
-1.868953176237019826e-07
-1.806858506094396953e-07
-1.739325582700619874e-07
-1.665865390895858607e-07
-1.586499757322141073e-07
-1.502115181287828568e-07
-1.414573789082299813e-07
-1.326319258585662392e-07
-1.240061044688877261e-07
-1.158605677131085533e-07
-1.084564927481689953e-07
-1.019946324311103320e-07
-9.656331170737598699e-08
-9.210374044819300366e-08
-8.841838008586480857e-08
-8.520757209781418713e-08
-8.213279022682065733e-08
-7.888452183057736436e-08
-7.523992502655465163e-08
-7.113019627004659594e-08
-6.666884144046812272e-08
-6.211348460608509861e-08
-5.778452977221562190e-08
-5.395557646796569953e-08
-5.076580595765805096e-08
-4.817583454374921459e-08
-4.598628009411190731e-08
-4.391945201412883006e-08
-4.174668331961479142e-08
-3.939291740989735259e-08
-3.695073469453017649e-08
-3.460804312723386299e-08
-3.252382793097087000e-08
-3.073947660892427086e-08
-2.917141032299488687e-08
-2.768443792701489881e-08
-2.619696020125320193e-08
-2.472070515143006421e-08
-2.332499230354419888e-08
-2.205925157278223074e-08
-2.090787759330726350e-08
-1.982768324156583127e-08
-1.879361238364287555e-08
-1.781086610444812914e-08
-1.689477618247332813e-08
-1.604300205945652889e-08
-1.524183646247241133e-08
-1.448687481133119227e-08
-1.377880574726843682e-08
-1.311394979909481266e-08
-1.248826602912800174e-08
-1.189990749259594205e-08
-1.134678471359280406e-08
-1.082609050494456925e-08
-1.033510610312074761e-08
-9.871396904819199223e-09
-9.432905192470688118e-09
-9.018003103281107271e-09
-8.625297365246928024e-09
-8.253415450404086434e-09
-7.900931409457546748e-09
-7.566434919911907638e-09
-7.248563940405615679e-09
-6.946057881372997773e-09
-6.657763270705783855e-09
-6.382631116496174944e-09
-6.119710972473215162e-09
-5.868143802745719684e-09
-5.627153805939594297e-09
-5.396039292256132899e-09
-5.174163319217033175e-09
-4.960946194362876565e-09
-4.755859970922592820e-09
-4.558424304725881143e-09
-4.368202839943545861e-09
-4.184799750538506766e-09
-4.007856661637965537e-09
-3.837049843889539116e-09
-3.672087870343505057e-09
-3.512708978193557449e-09
-3.358678350850766549e-09
-3.209785295113321848e-09
-3.065841046197924033e-09
-2.926676414225463151e-09
-2.792139356000256532e-09
-2.662093011625000268e-09
-2.536413770370573579e-09
-2.414989578539062080e-09
-2.297718329096473933e-09
-2.184506450090324858e-09
-2.075267497329462322e-09
-1.969921146571655768e-09
-1.868392073497297208e-09
-1.770609021504770706e-09
-1.676503974991865481e-09
-1.586011343167361170e-09
-1.499067318799120619e-09
-1.415609129455154625e-09
-1.335574496451880063e-09
-1.258901025055983978e-09
-1.185525721302787441e-09
-1.115384600558187833e-09
-1.048412154074961322e-09
-9.845408794588201708e-10
-9.237009597903078133e-10
-8.658201742532349587e-10
-8.108236613037469359e-10
-7.586338414136247206e-10
-7.091704570137242617e-10
-6.623506959678198116e-10
-6.180893949658932508e-10
-5.762993220927332790e-10
-5.368914741837154744e-10
-4.997754726247729049e-10
-4.648601636044721668e-10
-4.320533314457059689e-10
-4.012632270637352493e-10
-3.723982542826360492e-10
-3.453675731754321673e-10
-3.200814802749782772e-10
-2.964517303321496686e-10
-2.743918738230574895e-10
-2.538175677740300770e-10
-2.346467399097065321e-10
-2.167997570404912913e-10
-2.001998983398971701e-10
-1.847733947500899967e-10
-1.704483257928468262e-10
-1.571559151182126954e-10
-1.448362043043036628e-10
-1.334383640962179518e-10
-1.229127094057014317e-10
-1.132055950120671040e-10
-1.042608371946889470e-10
-9.602175526893668966e-11
-8.843359198854425065e-11
-8.144507478923377982e-11
-7.500882541497117599e-11
-6.908120064169040418e-11
-6.362302643245635520e-11
-5.859515892689419139e-11
-5.396461628269669285e-11
-4.969999951814209676e-11
-4.577239192569057717e-11
-4.215516200616009018e-11
-3.882378188336183418e-11
-3.575566211734348413e-11
-3.292999855821405576e-11
-3.032763117726401309e-11
-2.793091405966359576e-11
-2.572359607607065457e-11
-2.369071399651989568e-11
-2.181848661967433650e-11
-2.009421960767373329e-11
-1.850622007969334436e-11
-1.704371826801294937e-11
-1.569679714493910776e-11
-1.445632254474365596e-11
-1.331388149199481611e-11
-1.226172609294566749e-11
-1.129272074884589321e-11
-1.040029385931481717e-11
-9.578393238830886141e-12
-8.821445477554353070e-12
-8.124330241330002254e-12
-7.482293883567862300e-12
-6.890995612865002242e-12
-6.346425580115519087e-12
-5.844890866917040913e-12
-5.382990425804276545e-12
-4.957592012347807282e-12
-4.565810941876670828e-12
-4.204990521864828906e-12
-3.872684092576917087e-12
-3.566638319302941438e-12
-3.284777897471460797e-12
-3.025191538192477436e-12
-2.786119004368066241e-12
-2.565939171629725496e-12
-2.363159033075339867e-12
-2.176403611655025675e-12
-2.004406890027448907e-12
-1.846002817679033571e-12
-1.700117324082968812e-12
-1.565761070019562495e-12
-1.442022858460282922e-12
-1.328063633432725440e-12
-1.223110554133434385e-12
-1.126451822296295701e-12
-1.037431909420241433e-12
-9.554470914165599150e-13
-8.799413628402791664e-13
-8.104026667715231030e-13
-7.463594532683628097e-13
-6.873774187906269370e-13
-6.330565684054858068e-13
-5.830285227531473840e-13
-5.369540188938247634e-13
-4.945206087216835692e-13
-4.554405387306926171e-13
-4.194487982915359010e-13
-3.863013223687971247e-13
-3.557733358327836144e-13
-3.276578346715703022e-13
-3.017641694670966276e-13
-2.779167547667522087e-13
-2.559538820583243416e-13
-2.357266229194189360e-13
-2.170978188771791271e-13
-1.999411511222185914e-13
-1.841402891849750365e-13
-1.695881204521930418e-13
-1.561859868730796622e-13
-1.438430133699881617e-13
-1.324754934862611617e-13
-1.220063345367101813e-13
-1.123645471965523013e-13
-1.034847425781248012e-13
-9.530669789645464877e-14
-8.777495095911750405e-14
