# bin_3_2
4.747593006139014534e-06
4.083887496046849755e-06
3.526761653197558971e-06
2.868583569668157328e-06
2.147696422365215764e-06
1.676858478716232776e-06
1.321663552936566141e-06
9.870374671846211005e-07
7.890519772964919847e-07
5.910088194078686519e-07
4.531173569318247184e-07
3.509964298606201196e-07
2.823259714197068474e-07
2.300828518543949326e-07
1.855399531241463574e-07
1.509798751173637627e-07
1.258483291624016058e-07
1.047292006464570626e-07
8.480470163407822149e-08
6.782685855314637292e-08
