# bin_1_4
4.969667817481287635e-09
4.975751245484341102e-09
4.981932092228883226e-09
4.988206559368477446e-09
4.994544215563440961e-09
5.001094148924023130e-09
5.007559916509011692e-09
5.014094056586399623e-09
5.020629632677498099e-09
5.027293370511021260e-09
5.033620522819127558e-09
5.040729666274555333e-09
5.049791716748199159e-09
5.053848454231464549e-09
5.060678836300123013e-09
5.067222175295234071e-09
5.073671525973307430e-09
5.080005956898078402e-09
5.085779435525839806e-09
5.091837603473486619e-09
5.098012784532668344e-09
5.103581592340244210e-09
5.108871260031504608e-09
5.113865805116049789e-09
5.118492818547929435e-09
5.122723970069798298e-09
5.126491218933553882e-09
5.129743446050059106e-09
5.132386553694206847e-09
5.134760879970727268e-09
5.135898536162249771e-09
5.136582018309837118e-09
5.136378564463356773e-09
5.135473125738683881e-09
5.133181086610333322e-09
5.129988600194918445e-09
5.125593530916922768e-09
5.119611651797692573e-09
5.112261707690087646e-09
5.103759226961430028e-09
5.094227809768762136e-09
5.071958409976099111e-09
5.070331821543546782e-09
5.053260722004089759e-09
5.035485134631421026e-09
5.015569171120438995e-09
4.993231333178789812e-09
4.968364885263941899e-09
4.940767244044069263e-09
4.910249331960026991e-09
4.876598560838501085e-09
4.839766419188287152e-09
4.799669369552155438e-09
4.755617312014116936e-09
4.706070806187193843e-09
4.656623016647573674e-09
4.600890416019241724e-09
4.539874918646335425e-09
4.475796048622421860e-09
4.405973867887144462e-09
4.331056724456253159e-09
4.250852979070101854e-09
4.165199575580068592e-09
4.073910166608517074e-09
3.976722511540161196e-09
3.873147889849417062e-09
3.754357678556860434e-09
3.646131926701037678e-09
3.521229560469309971e-09
3.391839233257730309e-09
3.253988301956355897e-09
3.108611238478861406e-09
2.955044002416057046e-09
2.793656755918643387e-09
2.624251958106655496e-09
2.446758329692462666e-09
2.260703664026725177e-09
2.065820181213800883e-09
1.862167430871168753e-09
1.649292709287429474e-09
1.427665634045863694e-09
1.195106120328857342e-09
9.567321978386198060e-10
7.070226169290683934e-10
4.481622030395472388e-10
1.800172067225964117e-10
-9.724103575365596725e-11
-3.790149724775315931e-10
-6.804071613979541518e-10
-9.847014064003415806e-10
-1.300486296935641574e-09
-1.620565637372758088e-09
-1.951066514544524008e-09
-2.289237726735748296e-09
-2.636365801664510702e-09
-2.990546575799402152e-09
-3.351517043586369004e-09
-3.719174231294037332e-09
-4.092482216407624786e-09
-4.474492286358002334e-09
-4.858221556314248339e-09
-5.246190393040828362e-09
-5.633779533217557772e-09
-6.028445748087287203e-09
-6.427373476882062310e-09
-6.825230314476179059e-09
-7.217149911400917070e-09
-7.612689427696631053e-09
-8.005834358246787213e-09
-8.395657271675201189e-09
-8.781146488436300971e-09
-9.161156962300142303e-09
-9.534255504505751984e-09
-9.899053445761726221e-09
-1.025440100709557926e-08
-1.060241815402837424e-08
-1.093451940101528377e-08
-1.124948953612894385e-08
-1.155247200207484167e-08
-1.184030562213315152e-08
-1.211011300929883046e-08
-1.236801084161697741e-08
-1.259150698543137365e-08
-1.280108506056186699e-08
-1.298937704507413941e-08
-1.315344461814487990e-08
-1.329442139679704098e-08
-1.341072804152893792e-08
-1.350183958378559990e-08
-1.356741759257380318e-08
-1.360723782414802628e-08
-1.362137071153137326e-08
-1.360983211932664341e-08
-1.357307412022426552e-08
-1.351153418416938359e-08
-1.342609071318972049e-08
-1.331716163946184355e-08
-1.318582933940638470e-08
-1.303294624874554938e-08
-1.285985404506246758e-08
-1.266770825408034480e-08
-1.245803205705386464e-08
-1.223271158715350968e-08
-1.199269173788459867e-08
-1.174066235792213350e-08
-1.147823139653640081e-08
-1.120704614352562395e-08
-1.092869027349330531e-08
-1.064448623110138093e-08
-1.035195600478289547e-08
-1.006095180992890143e-08
-9.768519645717182612e-09
-9.475989157679631462e-09
-9.184506697285829271e-09
-8.895205535469755041e-09
-8.609406703685546369e-09
-8.327302875252917984e-09
-8.050330567990716366e-09
-7.779070762264989029e-09
-7.514124720687818914e-09
-7.255887271855130256e-09
-7.004515707554480058e-09
-6.760002877397621376e-09
-6.522062646181729053e-09
-6.290287430111138050e-09
-6.064130475597659885e-09
-5.842891025803857624e-09
-5.628596623898928659e-09
-5.414982184872234885e-09
-5.202046521998146223e-09
-4.993971598820412287e-09
-4.787735157729913858e-09
-4.582972423836043030e-09
-4.379643616141256603e-09
-4.178023062251706391e-09
-3.978336483519530432e-09
-3.781400247693498129e-09
-3.588108227016963893e-09
-3.399670130019093052e-09
-3.217414470348751977e-09
-3.042684028876681743e-09
-2.876626854404604879e-09
-2.720292148625394758e-09
-2.574471931102184064e-09
-2.438188069122077770e-09
-2.311744748817222286e-09
-2.193646161728350075e-09
-2.082593322454446136e-09
-1.976972929454621285e-09
-1.875679514558109663e-09
-1.777787548419923900e-09
-1.682962368944937909e-09
-1.591527145677590565e-09
-1.504008523943068737e-09
-1.420953626497544383e-09
-1.342692422823426616e-09
-1.269187456242894057e-09
-1.200228880282393749e-09
-1.135530271802571384e-09
-1.074829786377102767e-09
-1.017963576273882928e-09
-9.647598804255113943e-10
-9.149107165220701034e-10
-8.680365126661515901e-10
-8.237536519069055657e-10
-7.818071267606838422e-10
-7.421206615039018910e-10
-7.047327389937665383e-10
-6.697179773910056943e-10
-6.370493320668256360e-10
-6.065940047445725472e-10
-5.779917340410815294e-10
-5.510382086227054851e-10
-5.255794472086989674e-10
-5.016618668574634692e-10
-4.791231083430954992e-10
-4.580482906936642195e-10
-4.380938133504304461e-10
-4.192513429014221783e-10
-4.014780839222460031e-10
-3.846761944706578296e-10
-3.687806484078049577e-10
-3.537618867291858613e-10
-3.395306856863858037e-10
-3.259711705570087452e-10
-3.130439842539402199e-10
-3.007523908686885020e-10
-2.890272112001314977e-10
-2.778498007518561660e-10
-2.671157992736785112e-10
-2.568463007468785975e-10
-2.469860322107671987e-10
-2.375077628302518595e-10
-2.283880067575561467e-10
-2.196023462171003696e-10
-2.111265020671245005e-10
-2.029394048817359310e-10
-1.950227964261634523e-10
-1.873629996166725226e-10
-1.799449575802267064e-10
-1.727553789722423854e-10
-1.657831366604549632e-10
-1.590189472129878442e-10
-1.524544061390996205e-10
-1.460821028871314189e-10
-1.398958235550529790e-10
-1.338902415734613832e-10
-1.280607108540611951e-10
-1.224032309723702250e-10
-1.169143289265644801e-10
-1.115910317110653085e-10
-1.064327277129012085e-10
-1.014330780387278841e-10
-9.659216884627896933e-11
-9.190816462564525123e-11
-8.738258861472243313e-11
-8.300713387347648856e-11
-7.878366790246145613e-11
-7.471064382299030553e-11
-7.078650113338597399e-11
-6.700955144472679568e-11
-6.338014783994239965e-11
-5.988950231806981191e-11
-5.654245756342210199e-11
-5.333463457445374648e-11
-5.026455575443054497e-11
-4.732816223947077622e-11
-4.452347355054981858e-11
-4.184774631941529654e-11
-3.929813834878607596e-11
-3.687167697676889396e-11
-3.456516251059205980e-11
-3.237514863375436489e-11
-3.029822828845779604e-11
-2.833104007136620936e-11
-2.647193445851671986e-11
-2.471370310001995873e-11
-2.305344971020099963e-11
-2.148819743188488010e-11
-2.001414722537449907e-11
-1.862515532106995051e-11
-1.732238497702240731e-11
-1.609954272763819062e-11
-1.495334267352169789e-11
-1.387933184684393140e-11
-1.287390096938963019e-11
-1.193442684197523236e-11
-1.105700886617248654e-11
-1.023834470442016810e-11
-9.475170303416042345e-12
-8.764354363966214798e-12
-8.102872446933916509e-12
-7.487820338652030442e-12
-6.916403938002859719e-12
-6.385938260117053362e-12
-5.893866206872978314e-12
-5.437732727631429602e-12
-5.015202833819280028e-12
-4.624077169273594831e-12
-4.262330738830200226e-12
-3.927787758189559494e-12
-3.618776539544158048e-12
-3.333515210291277696e-12
-3.070258092235151788e-12
-2.827423524935648032e-12
-2.603592390942430442e-12
-2.397325300522736907e-12
-2.207326791344524865e-12
-2.032300903645415099e-12
-1.871142455531429299e-12
-1.722760682829489678e-12
-1.586122433480575624e-12
-1.460274287439308700e-12
-1.344459549379293494e-12
-1.237816234025314059e-12
-1.139626563152905912e-12
-1.049222464890499115e-12
-9.659743829660076655e-13
-8.893416625865029533e-13
-8.187896995775125708e-13
-7.538211808563161387e-13
-6.940192762339292010e-13
-6.389641139852291307e-13
-5.882756712957589194e-13
-5.416090555915415252e-13
-4.986510573190641014e-13
-4.590951919860397519e-13
-4.226693340938519674e-13
-3.891454277745237149e-13
-3.582811335420411518e-13
-3.298524504443776453e-13
-3.042380743322042007e-13
-2.801090485559007375e-13
-2.579012826844523756e-13
-2.374540629159123952e-13
-2.186296034441415390e-13
-2.013010062298215548e-13
-1.853470186693268767e-13
-1.706374075765862475e-13
-1.571172883714617761e-13
-1.446531861606171936e-13
-1.331966229209488281e-13
-1.226489720071556583e-13
-1.129390005440660443e-13
-1.039740102756228711e-13
-9.574748028986886598e-14
-8.817359307232160157e-14
-8.120204150292512043e-14
-7.478381031968240439e-14
-6.885724162386993463e-14
-6.338997526645582614e-14
-5.838719231763580757e-14
-5.378222869408982107e-14
-4.954334511065709747e-14
-4.564158310920424982e-14
-4.201496154102879017e-14
-3.868943773176670983e-14
-3.565088179923640519e-14
-3.285405469418770974e-14
-3.027991610753386530e-14
-2.787320253174414438e-14
-2.569546344746770424e-14
-2.368290646110750110e-14
-2.183897735743134210e-14
-2.008193243226822957e-14
-1.852470918771059211e-14
-1.709164275575355276e-14
-1.577268628295500136e-14
-1.449305802516147434e-14
-1.338109320578975714e-14
-1.235775340909747634e-14
-1.133743464569061544e-14
-1.047670105670460045e-14
-9.684410889929190819e-15
-8.955076043275039947e-15
-8.199027876401957113e-15
-7.587417422347626596e-15
-7.024168800934382202e-15
-6.408778865100683292e-15
-5.938444844886219663e-15
-5.355478597573126479e-15
-4.967714659397303529e-15
-4.617610995518136785e-15
-4.142587425419605963e-15
-3.848752140368002510e-15
-3.577328834423347712e-15
-3.144164111693996600e-15
-2.926389614685164311e-15
-2.733723791180475010e-15
-2.427081093880060274e-15
-2.112696852729874432e-15
-1.971214475866478429e-15
-1.693211291300767854e-15
-1.581778525275185752e-15
-1.331818709997225823e-15
-1.245671991548443259e-15
-1.049945466241204457e-15
-9.826779047064021505e-16
-8.118405203956573278e-16
-7.600047012763225781e-16
