# bin_4_4
1.240415275869306901e-08
1.245257069771562944e-08
1.250268978076801758e-08
1.255457066677968815e-08
1.260841470253887305e-08
1.266390350905337512e-08
1.272134662674922589e-08
1.278076514045053154e-08
1.284217522376853335e-08
1.290576286636550329e-08
1.297151016201213700e-08
1.303946472043611516e-08
1.311254939555402165e-08
1.318233130722090616e-08
1.325692647875132214e-08
1.333474879124092092e-08
1.341471700905774232e-08
1.349728022158454190e-08
1.358207322826259991e-08
1.367001815016307632e-08
1.376117533229273033e-08
1.385476380770388688e-08
1.395127805409604994e-08
1.404991844701488522e-08
1.415274785484115983e-08
1.425872150642503878e-08
1.436783072424491420e-08
1.447998653481615469e-08
1.459541026070837440e-08
1.471448434389606219e-08
1.483650838641944423e-08
1.496225603231704734e-08
1.509156258822343287e-08
1.522447705060765539e-08
1.536135306651196623e-08
1.550133930522458683e-08
1.564537910592648659e-08
1.579322060360739624e-08
1.594419342197886631e-08
1.609990657963372996e-08
1.626005403142794522e-08
1.641285591572043008e-08
1.659287734571403135e-08
1.676270005653854887e-08
1.693835599947868119e-08
1.711787901208919432e-08
1.730159382097459172e-08
1.748940695718831052e-08
1.768128238471216239e-08
1.787719674804768589e-08
1.807710752481225841e-08
1.828108920034610100e-08
1.848923159220830476e-08
1.870092901860314345e-08
1.891696764302652700e-08
1.913678408106294750e-08
1.936043120486009750e-08
1.958680105919229824e-08
1.981901675780068528e-08
2.005333916913220024e-08
2.029135146412765910e-08
2.053273027981300889e-08
2.077739170715608059e-08
2.102538331011941603e-08
2.127627010777871695e-08
2.152998088396775784e-08
2.177742431823012597e-08
2.204547208416332589e-08
2.230470048350612350e-08
2.256801826173728660e-08
2.283483903630694625e-08
2.310191023530487107e-08
2.338951178130392439e-08
2.363968429934767432e-08
2.391027456274081584e-08
2.418157585995421443e-08
2.445317722595582009e-08
2.472490167186684437e-08
2.499598668696224556e-08
2.526746244505470721e-08
2.553717060664778631e-08
2.580595368681867153e-08
2.607296086302664166e-08
2.635284707016959769e-08
2.660053846392214492e-08
2.686017745586416605e-08
2.711696830877106790e-08
2.736990197730899462e-08
2.761876581602374460e-08
2.786314555877286449e-08
2.809968904154550720e-08
2.833650530960565177e-08
2.856453708168560353e-08
2.878656719732786182e-08
2.900079094235987345e-08
2.920789067218936637e-08
2.940727633712872668e-08
2.959789696905542640e-08
2.977997188045427993e-08
2.995114590907785708e-08
3.013494692485265752e-08
3.026510944284205147e-08
3.040523871717814079e-08
3.053372895886144638e-08
3.064997417619460377e-08
3.075310121720070136e-08
3.084358521392050497e-08
3.091764152438981329e-08
3.098206454454532519e-08
3.102903236330201617e-08
3.105324558861816590e-08
3.107625849803756808e-08
3.107541204963749818e-08
3.105760163112728751e-08
3.102229104138304689e-08
3.096936696297572543e-08
3.089773071095726617e-08
3.080759966945845371e-08
3.069880991448848509e-08
3.056957962366766236e-08
3.042098712249652581e-08
3.024507135755857056e-08
3.006394976475057596e-08
2.985519832787320765e-08
2.962551845417530291e-08
2.937688202295948751e-08
2.910729916793076345e-08
2.881771613560781343e-08
2.850824203741356501e-08
2.817969994698828934e-08
2.783108589518658187e-08
2.746429577638283739e-08
2.707955936716986667e-08
2.667726831852143989e-08
2.625891435776655965e-08
2.582353570839657082e-08
2.537386587829171821e-08
2.494044916988656383e-08
2.443344761017310547e-08
2.394497585833377858e-08
2.344601106742358157e-08
2.293744822567267142e-08
2.242052167299169352e-08
2.189646516886636010e-08
2.136641041575565920e-08
2.083161238872738417e-08
2.029305965295961430e-08
1.975217719674900882e-08
1.921011688216737285e-08
1.866835963468564941e-08
1.812800546185844258e-08
1.759034657663889285e-08
1.705694408579136859e-08
1.652830814489987463e-08
1.600575144976627403e-08
1.548980653084329651e-08
1.498145830472201260e-08
1.448133464745026613e-08
1.398984220502092265e-08
1.350731315120810342e-08
1.303407477757271340e-08
1.257049345790313043e-08
1.211701058672341564e-08
1.167384578758004655e-08
1.124107329104600950e-08
1.081844429315212145e-08
1.040584229121794423e-08
1.000311371514264969e-08
9.609947547610217654e-09
9.226088994464500336e-09
8.851406396854592607e-09
8.485744615754940535e-09
8.129022113525926645e-09
7.781335789779607648e-09
7.442981419406761361e-09
7.113998811365638293e-09
6.794798763606107120e-09
6.485482329491757962e-09
6.186541384961587270e-09
5.898593522254670558e-09
5.622036682798746838e-09
5.357223324768071852e-09
5.104279441973454071e-09
4.863227477318882135e-09
4.633991125579115338e-09
4.416330089630404925e-09
4.209663339200341866e-09
4.013242957371801150e-09
3.826349067741378291e-09
3.647855616575983239e-09
3.476725009994134203e-09
3.311965527973057014e-09
3.152668411795798544e-09
2.998145674566595718e-09
2.847980730629542419e-09
2.702223280900377755e-09
2.561301712207928072e-09
2.425960984130152491e-09
2.297157619163789990e-09
2.175891671715232841e-09
2.062930544498590283e-09
1.958527288020128296e-09
1.862425353980715207e-09
1.773658818086884034e-09
1.690819700527950370e-09
1.612340300195494552e-09
1.536830347340193776e-09
1.463279777050816762e-09
1.391380794801477203e-09
1.321386081673123372e-09
1.254384789105485853e-09
1.190873850181611258e-09
1.131924114977292428e-09
1.077330410307010160e-09
1.026783751541566051e-09
9.794223192558072235e-10
9.341926844745528769e-10
8.906903456539562110e-10
8.487631962114419257e-10
8.083548523590921208e-10
7.701505839220510992e-10
7.342517353635723466e-10
7.004605902352770708e-10
6.684925605818429412e-10
6.379982548380941305e-10
6.088007181194304256e-10
5.808855367765032421e-10
5.543329192613704864e-10
5.291323609307223041e-10
5.051132984197265955e-10
4.822033338084776754e-10
4.602901928075720655e-10
4.393491093392303457e-10
4.193633525452853272e-10
4.002765701080614377e-10
3.820180615396513664e-10
3.645337111976676386e-10
3.478634367064605500e-10
3.318503433936071679e-10
3.165128697290710946e-10
3.018133344750547257e-10
2.877279536699497588e-10
2.742300923658179060e-10
2.612884689743215203e-10
2.488771393754028999e-10
2.369745328452177147e-10
2.255598716770806036e-10
2.146137734273981442e-10
2.041181085726332873e-10
1.940555619330421176e-10
1.844096727752062222e-10
1.751648035702922347e-10
1.663061107644156555e-10
1.578195533491785255e-10
1.496918244825285936e-10
1.419103107370352083e-10
1.344630217490076237e-10
1.273385064523760040e-10
1.205258076426279447e-10
1.140143826585951407e-10
1.077940681899868489e-10
1.018366223121553020e-10
9.617029547842432023e-11
9.076643939808823695e-11
8.561594378694550199e-11
8.070988638677865272e-11
7.603969672123866287e-11
7.159734525479205211e-11
6.737415484794887159e-11
6.336216348612582872e-11
5.955333074415424583e-11
5.593993458170883032e-11
5.251458607684291968e-11
4.926983155944836996e-11
4.619819977224128628e-11
4.329258838108636797e-11
4.054608952693581779e-11
3.795089300236465792e-11
3.550258358267371861e-11
3.319330869245292456e-11
3.101682193742381963e-11
2.896715829961122729e-11
2.703817864073970480e-11
2.522395042292008627e-11
2.351894735424006779e-11
2.191783874527141064e-11
2.041515866493717666e-11
1.900503739502096935e-11
1.768426886683154004e-11
1.644725141238454997e-11
1.528932934313387289e-11
1.420624670789861367e-11
1.319383574957177997e-11
1.224795497054647511e-11
1.136486775234760536e-11
1.054091873979368213e-11
9.772523459250971499e-12
9.056438227655017441e-12
8.389486036605711699e-12
7.768613953185225972e-12
7.190937895416068828e-12
6.653891016426084553e-12
6.154823987136392022e-12
5.691319529820664980e-12
5.261044622354163665e-12
4.861845394558303986e-12
4.491637593713426397e-12
4.148511039133375004e-12
3.830616109519122454e-12
3.536240023623130304e-12
3.263750391297009351e-12
3.011621323724745992e-12
2.776486193880354900e-12
2.560991527709358251e-12
2.361773220283516906e-12
2.177654195284489419e-12
2.007522571776207940e-12
1.850414214340200998e-12
1.705310685495265508e-12
1.571396152929989797e-12
1.447890704591557405e-12
1.334025584665651494e-12
1.229117518256590701e-12
1.132399975286202156e-12
1.043285047577027902e-12
9.611792010158150442e-13
8.855334089283109716e-13
8.158018110012917636e-13
7.515785534234507305e-13
6.924201576700107000e-13
6.379096621089898081e-13
5.877072834482531499e-13
5.414447242415746000e-13
4.988161486522506446e-13
4.595424769686619827e-13
4.233645119344542375e-13
3.900284964935247344e-13
3.593162976078861734e-13
3.310439796358419510e-13
3.049773300197379739e-13
2.809552070318425986e-13
2.588262275304241634e-13
2.384361495001740356e-13
2.196517892242976697e-13
2.023720594573221438e-13
1.864238927947731043e-13
1.717299558567661838e-13
1.581878179721316591e-13
1.457163067716387769e-13
1.342225398626896387e-13
1.236591953276704542e-13
1.139048015570876260e-13
1.049099884850512910e-13
9.662498151153878703e-14
8.898944497359018663e-14
8.198921328053054598e-14
7.550250043140115542e-14
6.952550461681173952e-14
6.401774482125374643e-14
5.894523083583187137e-14
5.430687276624548668e-14
4.999490316066351814e-14
4.601752558190955747e-14
4.235397210225234800e-14
3.902486712975250588e-14
3.590973783673321184e-14
3.303939702466752762e-14
3.039361439963116933e-14
2.809111079653928503e-14
2.583310158302713278e-14
2.375032137740184745e-14
2.183097881128554885e-14
2.006101483193168417e-14
1.841408213637396697e-14
1.691112021856196743e-14
1.557367008372839219e-14
1.429222452746793016e-14
1.311081226176570039e-14
1.210335269957133224e-14
1.109195584243005096e-14
1.015954297924526647e-14
9.299592979252400827e-15
8.508248194669360474e-15
7.814229202948542087e-15
7.136807800191595876e-15
6.512174793885802795e-15
5.990267690914425308e-15
5.454956046288347630e-15
4.961581775753148510e-15
4.512730176293232767e-15
4.119470972144263258e-15
3.730989201469453466e-15
3.412946332323807760e-15
3.080463596698631813e-15
2.774732667427769469e-15
2.493708128093173692e-15
2.254217085231000075e-15
2.015737825915267868e-15
1.829351168521624001e-15
1.626728855264634353e-15
