age = 13.759086297830716
#age unit = Gyr
chistar = 13945.62832719249
#chistar unit = Mpc
cmbshift = 1.738574557045177
da_star = 13.94562832719249
#da_star unit = Gpc
k_d = 0.13978794319876697
#k_d unit = 1/Mpc
k_equality = 0.01014367512226036
#k_equality unit = 1/Mpc
nz = 401
r_star = 145.41624708383122
#r_star unit = Mpc
rs_zdrag = 148.16656591422338
#rs_zdrag unit = Mpc
theta_d = 0.16115436433970273
#theta_d unit = 100 radian
theta_equality = 0.8282142048679718
#theta_equality unit = 100 radian
theta_mc = 0.010423910621200577
#theta_mc unit = radian
theta_rs_equality = 0.4573617072465839
#theta_rs_equality unit = 100 radian
thetastar = 1.0427371479582963
#thetastar unit = 100 radian
z_equality = 3323.4912103760958
zdrag = 1059.0553283691406
zstar = 1089.7012935513926
