# bin_2_2
9.412008496261464150e-09
9.441202663655174527e-09
9.471364624786863765e-09
9.502505543653737500e-09
9.534685316313457139e-09
9.568016631911071654e-09
9.602270637122119668e-09
9.637618941031350596e-09
9.674040477658674676e-09
9.711703743375386992e-09
9.750547279181973673e-09
9.790652006934956228e-09
9.834692347937356079e-09
9.874424448444715242e-09
9.918214892170006476e-09
9.963126219486219737e-09
1.000956542999860363e-08
1.005746459304696580e-08
1.010603990697778540e-08
1.015665683648281516e-08
1.020900816940841739e-08
1.026231064128814216e-08
1.031704023224969611e-08
1.037325803771141807e-08
1.043093596384946795e-08
1.049010200407714616e-08
1.055075066485146251e-08
1.061290120697132641e-08
1.067654444863985017e-08
1.074206919893151928e-08
1.080798731352558835e-08
1.087635638763212654e-08
1.094624975887860787e-08
1.101777106903364801e-08
1.109051794851257628e-08
1.116485466984198026e-08
1.124047798940465369e-08
1.131756477029318910e-08
1.139441670197496962e-08
1.147535322529660616e-08
1.155747830755344025e-08
1.162970401684340288e-08
1.172593864175632766e-08
1.180945576609771286e-08
1.189579791405515970e-08
1.198337268312184797e-08
1.207201036622046057e-08
1.216170349819113278e-08
1.225236069938109714e-08
1.234389303972996974e-08
1.243617398446680759e-08
1.252920119902757359e-08
1.262299772993980313e-08
1.271680205680848516e-08
1.281152121297303296e-08
1.290642749280362679e-08
1.300148241489841123e-08
1.309564074290643067e-08
1.319169577823666194e-08
1.328653244738156389e-08
1.338100806953818897e-08
1.347515311276847812e-08
1.356874860757889665e-08
1.365823854386996769e-08
1.375062930779591701e-08
1.384393275123875656e-08
1.392479848758320927e-08
1.402149877940983389e-08
1.410643337154575776e-08
1.419260321766962609e-08
1.427538419602923907e-08
1.435620906793777813e-08
1.443433282019465409e-08
1.451009511399937122e-08
1.458330533774132512e-08
1.465365702946347519e-08
1.472079179776765599e-08
1.478481459026620856e-08
1.484541918150724206e-08
1.490243267184904263e-08
1.495577581794229829e-08
1.500514796492530390e-08
1.505039243458416179e-08
1.509134214778977504e-08
1.512792228923458339e-08
1.515999025952983117e-08
1.518751065292063289e-08
1.521021593445578776e-08
1.522801294597309859e-08
1.524084845492539017e-08
1.524859734869628026e-08
1.525124272738909323e-08
1.524865851979897668e-08
1.524126674140714402e-08
1.522773432205044024e-08
1.520936531437502564e-08
1.518595843973180864e-08
1.515697771575928870e-08
1.512303819764344657e-08
1.508380583921510644e-08
1.503968776738483498e-08
1.499062685080850886e-08
1.493680821338484615e-08
1.487826006493639731e-08
1.481510424003123777e-08
1.474194902884449690e-08
1.467544417723601274e-08
1.459948470372258859e-08
1.451496290228336031e-08
1.443507459709224559e-08
1.434752027358001480e-08
1.425752142986502249e-08
1.416544369093386782e-08
1.407135370100351830e-08
1.397501399872126040e-08
1.387687850522059833e-08
1.377706264216251581e-08
1.367577369061820368e-08
1.357365851925583820e-08
1.346949108911917432e-08
1.336470865098717372e-08
1.325221329791264809e-08
1.315345524394506017e-08
1.304697072850427653e-08
1.293934056667478105e-08
1.283256555689182019e-08
1.272450181182127929e-08
1.261585902740942369e-08
1.250625280920456390e-08
1.239569098385108001e-08
1.228392780350762911e-08
1.217053626793911442e-08
1.205526912458944339e-08
1.193738168137828558e-08
1.181683806379568652e-08
1.169305923506383203e-08
1.156553067110763016e-08
1.143390157974010687e-08
1.129763397024253856e-08
1.115634962502314796e-08
1.100993127406689544e-08
1.085755441313579414e-08
1.069822700300150804e-08
1.053061999262180844e-08
1.035396353553326826e-08
1.016797837501045533e-08
9.972712845654765302e-09
9.767957174245029954e-09
9.553769202174345091e-09
9.330357945053965132e-09
9.098540314455811681e-09
8.859413472048618733e-09
8.614072090789904769e-09
8.363337032147891501e-09
8.107942323087160488e-09
7.848441935338112429e-09
7.586018215078796233e-09
7.321869672011322381e-09
7.057537675873617389e-09
6.794882622569265271e-09
6.535912111735991249e-09
6.282535957551074612e-09
6.036487015804506502e-09
5.799267411552612441e-09
5.572091475934228529e-09
5.355932807914404745e-09
5.151675015540277941e-09
4.959727122656434068e-09
4.780424236057678074e-09
4.613552552140178919e-09
4.458396717837421177e-09
4.313537518123905661e-09
4.177161187272767534e-09
4.047193067468326661e-09
3.921399274048659888e-09
3.797489273922205231e-09
3.673059052660277616e-09
3.545901493993570247e-09
3.413967070681465226e-09
3.276061758442905640e-09
3.131782734841554379e-09
2.982010250075676480e-09
2.828116685021167106e-09
2.672747416027441516e-09
2.519097366817240806e-09
2.370925623726496771e-09
2.231711751154754557e-09
2.104069990858698170e-09
1.990053262478955465e-09
1.889942375286240601e-09
1.802774841657080191e-09
1.725933094234454361e-09
1.655678548917359718e-09
1.588169987318580373e-09
1.520096378260437473e-09
1.449198983727841348e-09
1.374948258037619665e-09
1.298373862633976092e-09
1.221940247044778663e-09
1.148815446542091976e-09
1.081702085054128818e-09
1.022069021429085146e-09
9.697488821999214369e-10
9.231623037435251353e-10
8.798152574807351553e-10
8.373761051424390297e-10
7.946691960555023541e-10
7.517082478692850467e-10
7.098333909729236569e-10
6.706589077174500473e-10
6.350726351308098379e-10
6.028952137304173891e-10
5.729810010843729115e-10
5.442868338167243929e-10
5.163078667051949380e-10
4.893660965815445289e-10
4.640247021857016897e-10
4.405283871743438842e-10
4.186320896919147561e-10
3.978540531853638938e-10
3.780062860855772726e-10
3.591794844894241893e-10
3.414696466973442503e-10
3.248268603712715146e-10
3.090762022177110926e-10
2.941209192187817582e-10
2.799850723624298891e-10
2.666398980724454107e-10
2.540012112080647813e-10
2.420223340943269448e-10
2.306781970654276711e-10
2.199289089858000946e-10
2.097300205921193741e-10
2.000452965962712531e-10
1.908450868437420729e-10
1.821029949624288622e-10
1.737939090992317169e-10
1.658929425721297721e-10
1.583755184046831068e-10
1.512179055291960296e-10
1.443978036056863487e-10
1.378944472408692718e-10
1.316885800033279745e-10
1.257624966232447193e-10
1.200998843399935544e-10
1.146856746566935353e-10
1.095059909945163719e-10
1.045480110524129932e-10
9.979982002708957693e-11
9.525037467553749741e-11
9.088938647267357180e-11
8.670732921844363300e-11
8.269532982079309258e-11
7.884517743644789696e-11
7.514180809627764059e-11
7.159351397561296529e-11
6.818577931734464851e-11
6.491255820425348751e-11
6.176826258277756557e-11
5.874779416991190342e-11
5.584626541415736649e-11
5.305912081034528161e-11
5.038223389049635242e-11
4.781182472373895673e-11
4.534420542368780286e-11
4.297591787553193499e-11
4.070383258146743977e-11
3.852503630427796071e-11
3.643660389118105256e-11
3.443583843804722674e-11
3.252027399526583635e-11
3.068745516283016484e-11
2.893460937355623346e-11
2.726029720125101543e-11
2.566195266879275798e-11
2.413736439484765087e-11
2.268448624927802911e-11
2.130128000484337744e-11
1.998564378273330206e-11
1.873673180169029683e-11
1.754910112758624224e-11
1.642411660213227265e-11
1.535860237481272211e-11
1.435059382444857783e-11
1.339800228886181653e-11
1.249880211670292733e-11
1.165091325272625193e-11
1.085231610989681144e-11
1.010093557400950356e-11
9.394762806632365502e-12
8.731766385418085753e-12
8.109958623006348839e-12
7.524279654306973267e-12
6.979205063337732903e-12
6.469513419390169254e-12
5.993357998959418782e-12
5.548941533965143476e-12
5.134518650657607219e-12
4.748400263397179956e-12
4.389143057020751348e-12
4.054787059610060608e-12
3.744031735932038300e-12
3.455400973343530187e-12
3.187608334370716203e-12
2.939289946271205973e-12
2.709290661837373842e-12
2.493527475856620180e-12
2.296962661877908744e-12
2.115474654867914618e-12
1.948105389972449747e-12
1.793883194543931074e-12
1.651830732190216033e-12
1.521013351756289540e-12
1.400525001634073320e-12
1.289596067570435227e-12
1.187452438277656150e-12
1.093397235059309481e-12
1.006805897289303167e-12
9.270566367209592065e-13
8.536211543728477065e-13
7.860044909886588193e-13
7.237423551450630540e-13
6.664104809579865231e-13
6.136192511336969079e-13
5.650087968059035041e-13
5.202423057901502148e-13
4.790266505384980264e-13
4.410754478504144395e-13
4.061247400062645098e-13
3.739480106787770994e-13
3.443353778007194339e-13
3.170440212955937360e-13
2.919223525157589388e-13
2.687837367691942375e-13
2.474795972632163402e-13
2.278619805958660190e-13
2.097970897109553372e-13
1.931622465684162308e-13
1.778437962201505816e-13
1.637391144051208053e-13
1.507782103929361823e-13
1.388154068654852645e-13
1.278002018965809636e-13
1.176566457933723994e-13
1.083147218420177830e-13
9.971273055577931583e-14
9.179212018703907476e-14
8.449739104116119932e-14
7.778038556069620221e-14
7.162562739154566245e-14
6.592552907340444753e-14
6.067725973719865184e-14
5.584380464243602921e-14
5.139256870124091355e-14
4.729298431750582258e-14
4.351613963774445852e-14
4.008093982881922755e-14
3.687526476734877922e-14
3.392285249662632249e-14
3.120348437739004063e-14
2.869702376435069998e-14
2.639036468629374913e-14
2.432256014469703928e-14
2.236107994720846273e-14
2.055165756567965612e-14
1.888784383497414091e-14
1.735522076512934428e-14
1.594362531551783744e-14
1.470965179363717177e-14
1.350675699224637525e-14
1.239874262147452018e-14
1.137202827704901397e-14
1.043259265349431430e-14
9.615935676728211035e-15
8.815336951635683305e-15
8.131538551947923050e-15
7.448583142236095914e-15
6.819861264409832761e-15
6.298876973409710119e-15
5.761742236251695079e-15
5.331519444201531170e-15
4.871892952439374688e-15
4.449266077957324886e-15
4.125720423634611380e-15
3.763738557000754152e-15
3.431282325452770652e-15
3.187338708595895899e-15
2.902671031968806016e-15
2.702478775432235339e-15
2.458749817723183345e-15
2.293000967654786943e-15
2.084530487860656836e-15
1.944964583902311802e-15
1.767214780208967383e-15
1.647560214999866736e-15
1.496705210921601438e-15
1.393161285290570906e-15
1.265943684610655279e-15
1.176745827526400417e-15
1.070175347095203932e-15
