# bin_2_4
3.726976972570629645e-07
3.178965311720392444e-07
2.549531082568994694e-07
1.974430571874837001e-07
1.553645618642451176e-07
1.217042994057165942e-07
9.159032354969905976e-08
7.143028690078772626e-08
5.601074480488357090e-08
4.294744234941125776e-08
3.336223963072334233e-08
2.630892671403866021e-08
2.151232954364702393e-08
1.777729474531755699e-08
1.449652227806697913e-08
1.186119609868244929e-08
9.881309781443172837e-09
8.176712823302181245e-09
6.545744318483662538e-09
5.150877478516394749e-09
