# bin_4_2
-3.261451425750104326e-07
-2.704345778266047891e-07
-2.278774888510102365e-07
-2.007704445267103253e-07
-1.730599895615021664e-07
-1.322729766541245568e-07
-9.725075225557535917e-08
-8.028025250301660623e-08
-6.203005210170960892e-08
-4.601098603655797811e-08
-3.470749566001211906e-08
-2.613757428628031336e-08
-2.036084228985653611e-08
-1.605266065755987500e-08
-1.249604922247651787e-08
-9.876071181086390976e-09
-8.076893268715452719e-09
-6.659013196017539282e-09
-5.395775319963569302e-09
-4.367035205574244383e-09
