# bin_1_1
4.556182910608900692e-09
4.583255115413108479e-09
4.611366429934601022e-09
4.640555931982426241e-09
4.670864590491931872e-09
4.702335997319679303e-09
4.735012670091277181e-09
4.768938151611359108e-09
4.804158214534367722e-09
4.840719914311109865e-09
4.878673457046917417e-09
4.918069507659852533e-09
4.958958374766505427e-09
5.001394726805520304e-09
5.045434329220690473e-09
5.091133782719803625e-09
5.138551258242535294e-09
5.187746854367265716e-09
5.238781213305791119e-09
5.291717980967483783e-09
5.346621875411835513e-09
5.403560815142171991e-09
5.462609470357279920e-09
5.523843854996408518e-09
5.587347696063599496e-09
5.653199834074439146e-09
5.721489720694324500e-09
5.792304686329666809e-09
5.865726717137029918e-09
5.941843846763273091e-09
6.020743397193615115e-09
6.102509476031780935e-09
6.187229913291950285e-09
6.274994401866286363e-09
6.365896183253893664e-09
6.460035976491055833e-09
6.557526291031282067e-09
6.658494632311600038e-09
6.763059356820264428e-09
6.871354161552337780e-09
6.983484955923128816e-09
7.099563218137573186e-09
7.219679329119334039e-09
7.343929255011997409e-09
7.472417790677944004e-09
7.605275042688767388e-09
7.742665807133977428e-09
7.884752194153179275e-09
8.031698694255609789e-09
8.183609458945947842e-09
8.340568257223280807e-09
8.502642193588850836e-09
8.669935333284235864e-09
8.842618693798093636e-09
9.020895262714433423e-09
9.204951222990584856e-09
9.394863562210235798e-09
9.590665473060210318e-09
9.792402415314898478e-09
1.000026232843922164e-08
1.021450073009206518e-08
1.043529982122845395e-08
1.066263914706563555e-08
1.089647568596036755e-08
1.113694232248595423e-08
1.138436110017949044e-08
1.163892555112927305e-08
1.190049921351138749e-08
1.216897155672924135e-08
1.244458872785859717e-08
1.272763801036846609e-08
1.301795430555594205e-08
1.331517038616382120e-08
1.361955092115210309e-08
1.393152887015231983e-08
1.425081588262746401e-08
1.457693335664760873e-08
1.491026661621248337e-08
1.525092591040395672e-08
1.559818456178487217e-08
1.595201005886611246e-08
1.631276473854234961e-08
1.668003991080016865e-08
1.705349897571650589e-08
1.743317839900497315e-08
1.781858899153908744e-08
1.820956082787179240e-08
1.860589538623629468e-08
1.900718190586436923e-08
1.941303065302935762e-08
1.982296053248692683e-08
2.023635260732765548e-08
2.065256500412471960e-08
2.107116360599034580e-08
2.149191940309820392e-08
2.191432145826267831e-08
2.233732575253407497e-08
2.275991982417586307e-08
2.318143402465181889e-08
2.360096695375040638e-08
2.401764944933920378e-08
2.443037258197395837e-08
2.483805079388080911e-08
2.523993614122365839e-08
2.563524102411520170e-08
2.602266158232529980e-08
2.640064328156402987e-08
2.676792841815650746e-08
2.712335359834086856e-08
2.746530369518920752e-08
2.779252688233925306e-08
2.810377148240379679e-08
2.839691972693527911e-08
2.867068204640710247e-08
2.892382374989625238e-08
2.915403854642363077e-08
2.936016960423754436e-08
2.954077261390459170e-08
2.969382533683925286e-08
2.981848877569345622e-08
2.991309801754032788e-08
2.997605309755977610e-08
3.000649760454605622e-08
3.000308336489394279e-08
2.996489026501997492e-08
2.989135718436940406e-08
2.978142560169385129e-08
2.963444777696482949e-08
2.945011383225956633e-08
2.922857753573753355e-08
2.897043276935182639e-08
2.867610190675592739e-08
2.834638904939694591e-08
2.798211913678918724e-08
2.758498297377915185e-08
2.715649365066443892e-08
2.669808548824091394e-08
2.621170158256954184e-08
2.569958873036365103e-08
2.516425818567128208e-08
2.460795244401164907e-08
2.403332590088045488e-08
2.344320306592331903e-08
2.284089679404816687e-08
2.222973877030264833e-08
2.161281806746365094e-08
2.099296584272009392e-08
2.037214240805257789e-08
1.975267084907925870e-08
1.913671301851297947e-08
1.852572677464389223e-08
1.792149879413549690e-08
1.732561966628159894e-08
1.673924499653081498e-08
1.616368037393645447e-08
1.559994354369898983e-08
1.504857427350292633e-08
1.451024472722972778e-08
1.398551378135653765e-08
1.347442859334923434e-08
1.297738277782484513e-08
1.249438636855472405e-08
1.202511749768290122e-08
1.156912611811462649e-08
1.112562158769924194e-08
1.069357163128800618e-08
1.027269755936561429e-08
9.861558819222581466e-09
9.459450525501229063e-09
9.065577691796698624e-09
8.679138998047541874e-09
8.299286952721980131e-09
7.925654099964808313e-09
7.558153406272363193e-09
7.197124762470963611e-09
6.843358221802359723e-09
6.497471776949975360e-09
6.161272248151103739e-09
5.836105448229837438e-09
5.524536942552061930e-09
5.227638954724287002e-09
4.947991473858216179e-09
4.685660267936232650e-09
4.442095294362352960e-09
4.216005482697378829e-09
4.005801252465326561e-09
3.809319412440282370e-09
3.622464175300656999e-09
3.443970304122880491e-09
3.270313605463268171e-09
3.101182784438892098e-09
2.936934548792675212e-09
2.778601378781013550e-09
2.628602850673101969e-09
2.488214492816126859e-09
2.357652714380536659e-09
2.236431276279072579e-09
2.122995219747601983e-09
2.015778716693531128e-09
1.913950299855597514e-09
1.817249564818785543e-09
1.725843335684096954e-09
1.639806644854101669e-09
1.558978936673970409e-09
1.482748436031884271e-09
1.410763887404492894e-09
1.342793771994901676e-09
1.278527572643339461e-09
1.217974591062923218e-09
1.161095417876055496e-09
1.107694360129857959e-09
1.057359734024385461e-09
1.009587681327986185e-09
9.642378136799887540e-10
9.213458869759616019e-10
8.809262344710268451e-10
8.427952270480568586e-10
8.066238882708369472e-10
7.722164169358404496e-10
7.395335800351961761e-10
7.085175166921798644e-10
6.790430875692137339e-10
6.509712238603125730e-10
6.241945195590780600e-10
5.986420589505095187e-10
5.742387168675181602e-10
5.508978811592316898e-10
5.285432939159195395e-10
5.071148730029678555e-10
4.865562255999395804e-10
4.668116711020814321e-10
4.478303653436233023e-10
4.295666127012747069e-10
4.119787867355130442e-10
3.950288425460626307e-10
3.786820536185613651e-10
3.629067499584821910e-10
3.476742346074590058e-10
3.329586359772390599e-10
3.187368428052067166e-10
3.049882832990405991e-10
2.916945109931469922e-10
2.788389647986476246e-10
2.664068055563514935e-10
2.543847522680672206e-10
2.427608114903681057e-10
2.315241692412752868e-10
2.206650078581723484e-10
2.101743788173825453e-10
2.000440762938172569e-10
1.902664965836555117e-10
1.808345629109273965e-10
1.717415746188726595e-10
1.629811808639800153e-10
1.545472400730552816e-10
1.464337866188821426e-10
1.386349158438499989e-10
1.311447777718193888e-10
1.239575085684422783e-10
1.170671866566238093e-10
1.104678055698259835e-10
1.041532248544822744e-10
9.811720691574236458e-11
9.235335529123947665e-11
8.685512402571319436e-11
8.161580481744394018e-11
7.662856159654957895e-11
7.188641599041098213e-11
6.738222487523270595e-11
6.310874527585883578e-11
5.905863437507950471e-11
5.522443574448735909e-11
5.159861375501678351e-11
4.817361480427141154e-11
4.494183393982762607e-11
4.189563483274538486e-11
3.902745709546230903e-11
3.632975216040567967e-11
3.379499304687077465e-11
3.141581635001036887e-11
2.918491271560982736e-11
2.709508840160484075e-11
2.513936714888017326e-11
2.331083300746193255e-11
2.160282191470007114e-11
2.000884996085961874e-11
1.852257379333641118e-11
1.713796208587408624e-11
1.584908756956068939e-11
1.465034454388138313e-11
1.353627972510767848e-11
1.250171220582377491e-11
1.154167835947558091e-11
1.065147650259344646e-11
9.826594436383615328e-12
9.062725786433613223e-12
8.355770067027301345e-12
7.701899429011498209e-12
7.097455540280945051e-12
6.539041900626556457e-12
6.023430018444486135e-12
5.547614991899972878e-12
5.108801418611442817e-12
4.704276887632174864e-12
4.331497006104147176e-12
3.988076932837047133e-12
3.671780529303811671e-12
3.380523235203787887e-12
3.112351365657976195e-12
2.865447201902601108e-12
2.638127486344212955e-12
2.428839929386302040e-12
2.236152568929115286e-12
2.058752844429873511e-12
1.895426058102045353e-12
1.745055874838599089e-12
1.606614541717661214e-12
1.479155815216144008e-12
1.361808564513051466e-12
1.253770662476775730e-12
1.154303582491890810e-12
1.062727469731677604e-12
9.784137985001368077e-13
9.007916419760465342e-13
8.293275483036970834e-13
7.635329611483169773e-13
7.029580928894675861e-13
6.471888391812425021e-13
5.958439502237821146e-13
5.485724247899385744e-13
5.050511220338505805e-13
4.649794808608230402e-13
4.280899890897906395e-13
3.941271677097933582e-13
3.628588224261921922e-13
3.340711765164835668e-13
3.075674231522505201e-13
2.831663731718049533e-13
2.606970621043240918e-13
2.400145275352886261e-13
2.209728603474326004e-13
2.034418752164478434e-13
1.873017165009852536e-13
1.724420387560286349e-13
1.587556555311539345e-13
1.461606717970287754e-13
1.345649123351294265e-13
1.238891069163292782e-13
1.140602771425380931e-13
1.050112266074366474e-13
9.667299609850951355e-14
8.900337735717529456e-14
8.194223856946057844e-14
7.544130278062492979e-14
6.945612374757494096e-14
6.393653878355810191e-14
5.886408836270583420e-14
5.419406185050207502e-14
4.989453184948162282e-14
4.593610413322470281e-14
4.228084048057420009e-14
3.892643931848340075e-14
3.583816411030252441e-14
3.299490375514092674e-14
3.036397732860923635e-14
2.795501311274948483e-14
2.573716849750027132e-14
2.369528081999209580e-14
2.179867333632088356e-14
2.006924558770763181e-14
1.847702559931164905e-14
1.698572780167475605e-14
1.563813159010873389e-14
1.439744936532027575e-14
1.325519865899663515e-14
1.216631704224661649e-14
1.120106223087652881e-14
1.031238898113639802e-14
9.426851572015813591e-15
8.678919194775541041e-15
7.882529182008393387e-15
7.257095622447046063e-15
6.681287881181109105e-15
6.010482430960859556e-15
5.533554402403137103e-15
5.094470080755122226e-15
4.533966762725517173e-15
4.174172202381291956e-15
3.667328747077087925e-15
3.376285060447705370e-15
2.930675300685270239e-15
2.698077717061410958e-15
2.304418244225725135e-15
2.121515337048556459e-15
1.759020216875878589e-15
1.619399887202362451e-15
1.361294340886856250e-15
1.253242178516073781e-15
1.029280743411546030e-15
9.475845097239449139e-16
