# bin_4_2
3.382797819822223222e-10
3.401507319106307269e-10
3.420922613468445707e-10
3.441071855379006485e-10
3.461981053269862948e-10
3.483677676074529218e-10
3.506192048694102566e-10
3.529553348720633775e-10
3.553792493211299099e-10
3.578941583043309925e-10
3.605030015757308536e-10
3.632089174398548356e-10
3.660153358313122715e-10
3.689249279442219759e-10
3.719413975174317774e-10
3.750677019974893082e-10
3.783074184376156178e-10
3.816652046281499285e-10
3.851447685911953285e-10
3.887521902573512036e-10
3.924920061804526442e-10
3.963691484622622820e-10
4.003900136808044124e-10
4.045590685236306100e-10
4.088802695585991078e-10
4.133583919392259648e-10
4.179981936896837962e-10
4.228036775931053008e-10
4.277803755376239825e-10
4.329342925373310917e-10
4.382718060041461374e-10
4.437988885723388669e-10
4.495217973039314240e-10
4.554457765234368989e-10
4.615744860464948984e-10
4.679113142714467744e-10
4.744601725739185414e-10
4.812264096856963223e-10
4.882191010618164090e-10
4.954509162174840500e-10
5.029311404810964652e-10
5.106705610274248759e-10
5.186714907398799171e-10
5.269394434849631330e-10
5.354783689671731604e-10
5.442968741973019781e-10
5.534039716217214802e-10
5.628023640286914887e-10
5.724908762648789166e-10
5.824678697690995413e-10
5.927430441092503311e-10
6.033375428408926793e-10
6.142687687470822340e-10
6.255503771687476161e-10
6.371835673508176517e-10
6.491696111462750078e-10
6.615090114611097674e-10
6.741930292004131809e-10
6.872085391900927361e-10
7.005585108098411377e-10
7.167609301954203040e-10
7.309876989321907549e-10
7.456053304899673592e-10
7.605843672389987090e-10
7.759321952082876809e-10
7.916991775789447449e-10
8.079167329135466832e-10
8.215731275885737879e-10
8.384914906230419355e-10
8.558924582468817094e-10
8.737454234416043368e-10
8.919847657758854719e-10
9.105694890225019476e-10
9.295370898275016580e-10
9.524722553149985820e-10
9.724244661187983553e-10
9.927684037205483617e-10
1.013510232759138832e-09
1.034654070011302466e-09
1.056161343798443745e-09
1.078021317606684060e-09
1.100252629642080946e-09
1.122846058563160941e-09
1.145780858990018937e-09
1.169046229814200312e-09
1.192619595549170707e-09
1.216493095623634251e-09
1.240655830960501209e-09
1.265089008989714229e-09
1.289763952193402279e-09
1.314642554496729283e-09
1.339690010056699091e-09
1.364880284457555296e-09
1.390190060114123206e-09
1.415590860022132018e-09
1.441045549844140696e-09
1.466516482595186376e-09
1.491970872776166528e-09
1.517374881254558497e-09
1.542679365283798902e-09
1.567846334455513355e-09
1.592836211158108820e-09
1.617593113847779298e-09
1.642052644983282500e-09
1.666159494300126917e-09
1.689848651613058748e-09
1.713064431637182713e-09
1.735768664849671755e-09
1.757913262209670346e-09
1.779412648446290915e-09
1.800236510444609935e-09
1.820366715285236834e-09
1.839726185172598967e-09
1.858278110750185788e-09
1.875979825052311227e-09
1.892725063333351189e-09
1.908474340763894291e-09
1.923189816938171398e-09
1.936798692278247238e-09
1.949278324754773206e-09
1.960583030631418312e-09
1.970666119714970377e-09
1.979500271163166284e-09
1.987029389347116149e-09
1.993210541683313697e-09
1.998016223239274649e-09
2.001403163721274800e-09
2.003339003600679904e-09
2.003796549490583078e-09
2.002761767343625728e-09
2.000228603238648048e-09
1.996159671604520532e-09
1.990522637177660207e-09
1.983285712349189011e-09
1.974455104261746095e-09
1.964049564854661969e-09
1.952052718608660097e-09
1.938453637435122345e-09
1.923265777474697347e-09
1.906485244662178108e-09
1.888081889308438855e-09
1.868073106603978294e-09
1.846491566069227249e-09
1.823341404879468189e-09
1.798613432124959820e-09
1.772344462413924287e-09
1.744597174046382435e-09
1.715383752114542150e-09
1.684774867661687324e-09
1.652851517994516201e-09
1.619667573010807958e-09
1.585297340421865251e-09
1.549834018502163197e-09
1.513349416685083468e-09
1.475929420364671869e-09
1.437674134569408831e-09
1.398672054602222743e-09
1.359042765857367437e-09
1.318917582049418141e-09
1.278425930050960907e-09
1.237760538335389594e-09
1.197113515193161209e-09
1.153938717329160499e-09
1.113989684608272221e-09
1.074642928055129166e-09
1.035959994151423210e-09
1.000521106693369858e-09
9.637146240554145415e-10
9.280495426071201938e-10
8.936210763145428077e-10
8.584319292829815613e-10
8.266832567701698264e-10
7.961669750067572585e-10
7.668685288099531680e-10
7.386755060897086220e-10
7.132966485917465913e-10
6.867662535945664374e-10
6.608351024581134505e-10
6.353213463700340494e-10
6.101152543203031217e-10
5.851027444245138031e-10
5.590590137816069918e-10
5.356606088669689600e-10
5.113406310373215339e-10
4.874254524009119301e-10
4.631591140103231872e-10
4.405584530816593545e-10
4.187430515360327115e-10
3.978320479271257021e-10
3.779087824827151776e-10
3.589853616247304550e-10
3.410200373683504197e-10
3.239207363941678109e-10
3.076474100279300729e-10
2.921155144179510509e-10
2.772635901556809735e-10
2.629901029155090864e-10
2.493135993878308225e-10
2.362033264766238890e-10
2.237254774310251595e-10
2.118475059789685375e-10
2.006535638216522754e-10
1.901292880524769290e-10
1.802691763242296010e-10
1.710051457409972281e-10
1.622035063532908695e-10
1.538720310903958455e-10
1.458312539711226746e-10
1.381231977354964184e-10
1.307766192833953410e-10
1.238075573543068036e-10
1.172660579747023467e-10
1.111428848754181033e-10
1.054066372321213733e-10
1.000036107878592964e-10
9.490051578102128153e-11
9.007947037922469198e-11
8.552553034635316827e-11
8.122842412495020205e-11
7.716443023167670053e-11
7.331153270969586164e-11
6.966705516818166719e-11
6.622762393601972387e-11
6.299099278907152074e-11
5.994662498604221305e-11
5.707052004673832777e-11
5.434892202881798679e-11
5.177240662074243191e-11
4.932771697498013195e-11
4.701149366964813311e-11
4.482161220747443648e-11
4.274970926538768508e-11
4.078619368390628234e-11
3.892072786891891779e-11
3.714595437580902521e-11
3.555910926364321885e-11
3.395265461274545470e-11
3.242408162146385078e-11
3.096785575339077050e-11
2.957963330770248729e-11
2.825577606820662407e-11
2.699257668431548246e-11
2.578616671766328470e-11
2.463313793989115843e-11
2.353056051350676943e-11
2.247560347207296855e-11
2.146557929807319778e-11
2.049806944186765358e-11
1.957087836064404195e-11
1.868197453996807754e-11
1.782946155125331346e-11
1.701157095706793696e-11
1.622666105553280922e-11
1.547321756239315636e-11
1.474984435151168203e-11
1.405525006377703474e-11
1.338823560651568169e-11
1.274768879819364908e-11
1.213257570845371793e-11
1.154193256744009078e-11
1.097485550690628782e-11
1.043049535262323507e-11
9.908055617995155874e-12
9.406785443933239633e-12
8.925970669032440946e-12
8.464932819663857035e-12
8.023029474508333310e-12
7.599647479738739198e-12
7.194193966820271776e-12
6.806102250201010478e-12
6.434829914623729583e-12
6.079848372514438238e-12
5.740643572012498385e-12
5.416721080138637191e-12
5.107597520066993661e-12
4.812797036253334770e-12
4.531859483456366092e-12
4.264332505531236491e-12
4.009768214625531830e-12
3.758733611351648485e-12
3.529361308775946215e-12
3.311633589777540991e-12
3.105128085237557854e-12
2.909429293551355332e-12
2.724136881142252212e-12
2.548856314925763286e-12
2.383185595305382832e-12
2.226736659234541310e-12
2.079134751588104949e-12
1.940001591552828281e-12
1.808964009330513587e-12
1.685666102887480315e-12
1.569754782923887599e-12
1.460877896074467719e-12
1.358701359089604446e-12
1.262897143395734829e-12
1.173140161643766365e-12
1.089121598742919550e-12
1.010539176234530291e-12
9.370995185377474343e-13
8.685223139238141552e-13
8.045349043658587755e-13
7.448786584443988758e-13
6.893043216126054981e-13
6.375715054941841521e-13
5.894557308590655306e-13
5.447355997258286472e-13
5.032060807814404453e-13
4.646670495105317170e-13
4.289349696464210032e-13
3.958293834195672031e-13
3.651797120782752131e-13
3.368209742320948049e-13
3.105982887596058176e-13
2.863623311514952153e-13
2.639751473378476673e-13
2.433033092628747948e-13
2.242235722519018571e-13
2.066215133887943063e-13
1.903869620254920604e-13
1.754183084489932229e-13
1.616202676373870710e-13
1.489039447379422420e-13
1.371865862399679687e-13
1.263905144058915292e-13
1.164435374718119466e-13
1.072790382216697324e-13
9.883559397252570033e-14
9.105658228718980035e-14
8.388979318191531540e-14
7.728617716729939152e-14
7.120324479290295138e-14
6.559911561700524190e-14
6.043610617520747094e-14
5.567949538105333922e-14
5.129729296883907405e-14
4.726002658720248026e-14
4.354054261357981767e-14
4.011382642954422725e-14
3.695683072584011134e-14
3.404706188987100660e-14
3.136758527587234115e-14
2.889900839600985682e-14
2.662473136883069632e-14
2.452946038429781198e-14
2.259910341985064035e-14
2.082067816161333500e-14
1.918222458268911036e-14
1.767272448095941001e-14
1.628042274432959118e-14
1.499930399327131453e-14
1.381901074231164127e-14
1.273160688696009056e-14
1.172978143633311498e-14
1.080679883284031954e-14
9.956453863628473409e-15
9.170582019647517663e-15
8.449002377509043300e-15
7.784207763456325364e-15
7.171728911332817263e-15
6.607448270768389204e-15
6.087572026482430632e-15
5.604659122419644658e-15
5.163693094151881769e-15
4.757426305612754367e-15
4.383127865556171670e-15
4.038281966606106859e-15
3.720570727526191657e-15
3.421700681674324377e-15
3.152506135375317072e-15
2.904493034576977121e-15
2.675994476094263184e-15
2.465474753753640532e-15
2.263364749308527222e-15
2.085313433618845889e-15
1.921271105034021556e-15
1.770135321486176140e-15
1.630890408906260217e-15
1.494478482363138999e-15
1.376923626357287091e-15
1.268617007437502534e-15
1.168830847198876753e-15
1.075944971207245690e-15
9.849683854209067979e-16
9.075035111177802202e-16
8.361319968881497944e-16
7.602402215292137315e-16
7.004545145675461049e-16
6.453712382098039740e-16
5.918974137141907301e-16
5.388777013658152449e-16
4.965102552955341256e-16
4.511993234482730679e-16
4.157307052573713667e-16
3.769428904367480477e-16
3.473169076314951317e-16
3.153950428771797533e-16
2.906107854263037953e-16
2.640046380390748085e-16
2.432624501670748581e-16
