# bin_5_3
2.243983982578516240e-10
2.258143580863186641e-10
2.272856092799295931e-10
2.288142941687937972e-10
2.304026274125940431e-10
2.320529163386560332e-10
2.337675540384727205e-10
2.355490167856913826e-10
2.373998868314078426e-10
2.393228307346220480e-10
2.413206244630608752e-10
2.433961449660298622e-10
2.455523741193560959e-10
2.477924135472346677e-10
2.501194683309481271e-10
2.525368774541535517e-10
2.550480883024758540e-10
2.576566913577476030e-10
2.603663966572099524e-10
2.631810600798139664e-10
2.661046771044987310e-10
2.691413833150062917e-10
2.722954795059433288e-10
2.755714042417951496e-10
2.789737723684810975e-10
2.825073636183441829e-10
2.861771190342641847e-10
2.899881705960457881e-10
2.939458312570530776e-10
2.980555934061364121e-10
3.023231512010898421e-10
3.067544066463971080e-10
3.113554612008307495e-10
3.161326272235927316e-10
3.210924394510279761e-10
3.262416619575972151e-10
3.315872923604259118e-10
3.371365643961640848e-10
3.428969569772268333e-10
3.488762026387730185e-10
3.550822901560490123e-10
3.615234702831610964e-10
3.682082663086305812e-10
3.751454795719736535e-10
3.823441943616112321e-10
3.898137864478448091e-10
3.975639303292162830e-10
4.056046030930713914e-10
4.139460896549952264e-10
4.225989927463216975e-10
4.315742334033624214e-10
4.408830511357025634e-10
4.505370084540020671e-10
4.605479994868037686e-10
4.709282488362409473e-10
4.816903308443042232e-10
4.928471651302814583e-10
5.044119902141610847e-10
5.163983792310988275e-10
5.288202681586746598e-10
5.416919351345646610e-10
5.550279461591376448e-10
5.688432079527515605e-10
5.831529933119936179e-10
5.979728091008034512e-10
6.133184908967533285e-10
6.292062186603921196e-10
6.456523081980437914e-10
6.626734721583090167e-10
6.802865395986446548e-10
6.985086159090551907e-10
7.173569854386576039e-10
7.368490456117313714e-10
7.570023725491894772e-10
7.778345273317731221e-10
7.993631714675659298e-10
8.216059116369453489e-10
8.445803293997628147e-10
8.683039712085015630e-10
8.927940639806904449e-10
9.180678478680328080e-10
9.441419506382773864e-10
9.710329115103160378e-10
9.987566545071011274e-10
1.027328530636268852e-09
1.056763527501485643e-09
1.087075580135362824e-09
1.118277995627505056e-09
1.150383241311782793e-09
1.183402504251834120e-09
1.217345951235062639e-09
1.252222627786010532e-09
1.288039882279627994e-09
1.324803607948456804e-09
1.362518227997152897e-09
1.401186172083704252e-09
1.440807580948585379e-09
1.481380590065980939e-09
1.522901582449149849e-09
1.565364304031072174e-09
1.608757345351430161e-09
1.653066564695568026e-09
1.698283037031924743e-09
1.744394061569770740e-09
1.791347505778828362e-09
1.839093626721561608e-09
1.887726567268804173e-09
1.937275608230986828e-09
1.987199045019027335e-09
2.036970380563959629e-09
2.087251105947195487e-09
2.138467373917575800e-09
2.190234039936871643e-09
2.242463339209642282e-09
2.295240021981686222e-09
2.348419195953004994e-09
2.401857151386181141e-09
2.455409673914922466e-09
2.508958240053238178e-09
2.562388584527540163e-09
2.615570036681829563e-09
2.668375071980965221e-09
2.720670703505861190e-09
2.772311612324500617e-09
2.823143370318137130e-09
2.873003298124461559e-09
2.921720330973706290e-09
2.969113665519810623e-09
3.014994375311183585e-09
3.059164459302208247e-09
3.101415662294862404e-09
3.141523947440542031e-09
3.179258396418033682e-09
3.214379970893886824e-09
3.246674696965214712e-09
3.275948866312714802e-09
3.301878441245660648e-09
3.324080997497328941e-09
3.342346297701877400e-09
3.356547024752208367e-09
3.366929160423700992e-09
3.373598043058653311e-09
3.375793720500400440e-09
3.372994450829378560e-09
3.364828305953868750e-09
3.350999572795172801e-09
3.331634359049487158e-09
3.306329178593870056e-09
3.274590986555270472e-09
3.236541438920483265e-09
3.192321082241611326e-09
3.142356408739099462e-09
3.087193917064669003e-09
3.027193419619919299e-09
2.962751599895853022e-09
2.894064235279438752e-09
2.821370641532597867e-09
2.744946136119052497e-09
2.665213517045386650e-09
2.582780164957254882e-09
2.498451212895366654e-09
2.413144150357190115e-09
2.327777811939901868e-09
2.243264535952468701e-09
2.160419967829858102e-09
2.079943175268434103e-09
2.002403235054261052e-09
1.928456546098821755e-09
1.858756390529863101e-09
1.793735603481069144e-09
1.733698242336760764e-09
1.678456848690476973e-09
1.627678109101474197e-09
1.580839502044119153e-09
1.537225952067863050e-09
1.496008537600707415e-09
1.456178872704382601e-09
1.416597619136285917e-09
1.375905912234454962e-09
1.332781811360910859e-09
1.286551650178526232e-09
1.236588210568126313e-09
1.182379726377293067e-09
1.124289996129694346e-09
1.063410449432874519e-09
1.001042297826161697e-09
9.387796206905244833e-10
8.786077991588361581e-10
8.224331404519969745e-10
7.719141615879827701e-10
7.281774796216766479e-10
6.911879284476590445e-10
6.603156299819294366e-10
6.338429056967864155e-10
6.098646218706486951e-10
5.861556108053278004e-10
5.609083975015485086e-10
5.329641101557866420e-10
5.026437348824781333e-10
4.709419165952321624e-10
4.397796969332712674e-10
4.108778444076512561e-10
3.855795665481844790e-10
3.642403527534488058e-10
3.460144045732792411e-10
3.296035577062638509e-10
3.132281458265297982e-10
2.964890715576496151e-10
2.792379451693394905e-10
2.625152380594742272e-10
2.470594687977417207e-10
2.332153800536626627e-10
2.208348829967744442e-10
2.090571492177858004e-10
1.977763219518594558e-10
1.868873942750777447e-10
1.766375332986516871e-10
1.672874667211348649e-10
1.584533700905476616e-10
1.501098731863366083e-10
1.422328679759861819e-10
1.348121877608040730e-10
1.279835786666530487e-10
1.215680071492016106e-10
1.154343572200881237e-10
1.097028775868576771e-10
1.043689564600195038e-10
9.933514989405823041e-11
9.458906527740856643e-11
9.013477613212153388e-11
8.594808834328666780e-11
8.200413746916478942e-11
7.828582208339898648e-11
7.477605271442871679e-11
7.145984870133333553e-11
6.832297506483417861e-11
6.535382271425239854e-11
6.254173758520201618e-11
5.987569092385407438e-11
5.734574732968599852e-11
5.494210207002871470e-11
5.265543723935136478e-11
5.047702898045869215e-11
4.839881618216441300e-11
4.641346249658027687e-11
4.451433383102977831e-11
4.269542179194988360e-11
4.095130935895575478e-11
3.927707775106802629e-11
3.766826901135651776e-11
3.612083778620248455e-11
3.463110666336456160e-11
3.319574275236979374e-11
3.181171945479013847e-11
3.047629910308400760e-11
2.918700760641949294e-11
2.794161726540750944e-11
2.673812539846488189e-11
2.557473625130516902e-11
2.444984295930926352e-11
2.336200392894701170e-11
2.230993177871010725e-11
2.129247040194521485e-11
2.030858667599992697e-11
1.935734954013010501e-11
1.843791848825703403e-11
1.754953059871614843e-11
1.669149001341971943e-11
1.586315986168382028e-11
1.506394913436515325e-11
1.429330977089937498e-11
1.355072312485210191e-11
1.283569935056454587e-11
1.214776584621156214e-11
1.148646520528358757e-11
1.085134838321833067e-11
1.024196877527137333e-11
9.657880818707822178e-12
9.098630665778189827e-12
8.563758425315320354e-12
8.052788313835890930e-12
7.565232336927864659e-12
7.100581500469941662e-12
6.658308001164403918e-12
6.237861948898305439e-12
5.838672275107910215e-12
5.460147482178392172e-12
5.101674713107015572e-12
4.762621991681785023e-12
4.442340014623343793e-12
4.140165668287826001e-12
3.855424236745876002e-12
3.587432920817019803e-12
3.335503809206158172e-12
3.098947411705314861e-12
2.877075705879350223e-12
2.669205409254259468e-12
2.474660817105744825e-12
2.292776356296410535e-12
2.122898887961456857e-12
1.964390844348967778e-12
1.816631436564902536e-12
1.679015310811800675e-12
1.550958408018862304e-12
1.431906574297871432e-12
1.321314818058439956e-12
1.218634627276452818e-12
1.123402005237314630e-12
1.035248956631062943e-12
9.537452349091577631e-13
8.784841111431330503e-13
8.090721025753371775e-13
7.450944968567196110e-13
6.861592540054196102e-13
6.318780656417465943e-13
5.818906647808954438e-13
5.358576786049040727e-13
4.934663700035430849e-13
4.544286121708745784e-13
4.184790975363498665e-13
3.853735092843369448e-13
3.548868603992257679e-13
3.268119641594796776e-13
3.009580256755728384e-13
2.771493448906210362e-13
2.552241222210593229e-13
2.350333587132330227e-13
2.164398432349732837e-13
1.993172198134379538e-13
1.835491287759217849e-13
1.690284174140808528e-13
1.556564345876784921e-13
1.433423159428142084e-13
1.320023721079868992e-13
1.215595333189798738e-13
1.119428276381751971e-13
1.030869055834138849e-13
9.493158294499258206e-14
8.742143695076242757e-14
8.050544431547581536e-14
7.413659870627958244e-14
6.827161042506415191e-14
6.287061521418961748e-14
5.789690470050001482e-14
5.331667439541649041e-14
4.909879332781459795e-14
4.521459378017573322e-14
4.163767635213799926e-14
3.834373045407261066e-14
3.531036900901567641e-14
3.251697623804741620e-14
2.994456749328900667e-14
2.757566018473542124e-14
2.539415492265803465e-14
2.338522606687249614e-14
2.153522093820326627e-14
1.983156700643924858e-14
1.826268642337596969e-14
1.681791731953255637e-14
1.548744132916498169e-14
1.426221713450420386e-14
1.313392074909116371e-14
1.209488483753504449e-14
1.113804774309644158e-14
1.025690642616716971e-14
9.445472413402396121e-15
8.698231686450124181e-15
8.010105892374001421e-15
7.376418737374923631e-15
6.792864864770997243e-15
6.255477854985339835e-15
5.760605021802811882e-15
5.304882716498508968e-15
4.885213596295800771e-15
4.498745292344335304e-15
4.142851051444610671e-15
3.815111964871923919e-15
3.513300519807798005e-15
3.235365452773571029e-15
2.979417801976420599e-15
2.743718063643468372e-15
2.526664364937803764e-15
2.326781572972817221e-15
2.142711265814885261e-15
1.973202497234020301e-15
1.817103292365540712e-15
1.673352816422246744e-15
1.540974163178132948e-15
1.419067714163362542e-15
1.306805023395319792e-15
1.203423226111465326e-15
1.108219968373678536e-15
1.020548282619621784e-15
9.398123234483555215e-16
8.654633832594405825e-16
7.969961758686977033e-16
7.339454466972629879e-16
6.758826912872730450e-16
6.224133540950096759e-16
5.731741467225275305e-16
