# bin_3_4
-3.507770014538673039e-09
-3.529860411223320319e-09
-3.552812606154709580e-09
-3.576659878125562633e-09
-3.601436728540617690e-09
-3.627179008094752222e-09
-3.653923895558897209e-09
-3.681709936931420322e-09
-3.710577192336855453e-09
-3.740567149410763226e-09
-3.771722902985178998e-09
-3.804089124083253483e-09
-3.837712142823688136e-09
-3.872640042710552323e-09
-3.908922632558259647e-09
-3.946611627895027488e-09
-3.985760578703225847e-09
-4.026425069869643244e-09
-4.068662665280154980e-09
-4.112533062301519261e-09
-4.158098138861207970e-09
-4.205421963820664309e-09
-4.254571002768233156e-09
-4.305614018644417759e-09
-4.358622319213027380e-09
-4.413669756586660178e-09
-4.470832724443695393e-09
-4.530190426502929868e-09
-4.591824835392192489e-09
-4.655820744345011576e-09
-4.722265949513646359e-09
-4.791251307658377642e-09
-4.862870793694894804e-09
-4.937221573827772288e-09
-5.014404129961502566e-09
-5.094522384198541889e-09
-5.177683735311119630e-09
-5.263999145990286398e-09
-5.353583269737631878e-09
-5.446554515985811444e-09
-5.543035129270063917e-09
-5.643151284957760988e-09
-5.747033183073762062e-09
-5.854815110573120964e-09
-5.966635530809065902e-09
-6.082637165377059202e-09
-6.202967065909923685e-09
-6.327776687777368776e-09
-6.457221952197086793e-09
-6.591463325979492821e-09
-6.730665812519824615e-09
-6.874999032569383828e-09
-7.024637234385423457e-09
-7.179759261630043398e-09
-7.340548569613187069e-09
-7.507193437630058502e-09
-7.679886650606426999e-09
-7.858825589798662836e-09
-8.044212021354323151e-09
-8.236252379890209787e-09
-8.435157343476850835e-09
-8.641141683417745104e-09
-8.854424223124112586e-09
-9.075227895638475208e-09
-9.303778908223578975e-09
-9.540306983203133155e-09
-9.785045051406028276e-09
-1.003822816863282668e-08
-1.030009453284583328e-08
-1.057088364262694807e-08
-1.085083709424042912e-08
-1.114019726529069833e-08
-1.143920685776570029e-08
-1.174810846799187915e-08
-1.206714329450314575e-08
-1.239655116439975875e-08
-1.273656933664345446e-08
-1.308743187541134858e-08
-1.344936903319392785e-08
-1.382260463879418553e-08
-1.420735721555102113e-08
-1.460383611458320939e-08
-1.501224345094167701e-08
-1.543277065662495617e-08
-1.586559736071603661e-08
-1.631089121669152009e-08
-1.676880396489586088e-08
-1.723947167659818650e-08
-1.772301290206713933e-08
-1.821952552394548210e-08
-1.872908631084249607e-08
-1.925174861282812394e-08
-1.978753931578055332e-08
-2.033645676686925681e-08
-2.089846893794648891e-08
-2.147350925393674194e-08
-2.206147664116238783e-08
-2.266223383966462041e-08
-2.327559328347676336e-08
-2.390130658956639229e-08
-2.453911008924924203e-08
-2.518867417129375577e-08
-2.584931480152143643e-08
-2.651971123011772799e-08
-2.719827577419843178e-08
-2.788350736294103988e-08
-2.857585448681290687e-08
-2.927545119661693121e-08
-2.998232120556315347e-08
-3.069535500463998220e-08
-3.141441021757794634e-08
-3.214023812001985539e-08
-3.287247113506802537e-08
-3.360892427697721510e-08
-3.434656098554950423e-08
-3.508339851794942906e-08
-3.581799392845718349e-08
-3.654877654124028899e-08
-3.727393857447801427e-08
-3.799155691375437216e-08
-3.869961875897854512e-08
-3.939597378157467671e-08
-4.007834588284198383e-08
-4.074434022731142265e-08
-4.139143911995773327e-08
-4.201699259518039503e-08
-4.261821629298186814e-08
-4.319219126784296690e-08
-4.373588437604054636e-08
-4.424619051840597379e-08
-4.471993778206463597e-08
-4.515375964166151867e-08
-4.554408024593809386e-08
-4.588732831266724834e-08
-4.618044953988236429e-08
-4.642113719037007577e-08
-4.660771540466817207e-08
-4.673798148566001386e-08
-4.680866234063170298e-08
-4.681572621675537962e-08
-4.675545774440120184e-08
-4.662448443115021569e-08
-4.641809173750562985e-08
-4.613104905906293609e-08
-4.575952101113629650e-08
-4.530263838304347503e-08
-4.476187342446591479e-08
-4.414015169951572272e-08
-4.344077363361164276e-08
-4.266749352689233422e-08
-4.182556424750106190e-08
-4.092101791613256010e-08
-3.995937837482496538e-08
-3.894534272189599761e-08
-3.788361911637367590e-08
-3.678007271282009923e-08
-3.564271199288639673e-08
-3.448144992006075014e-08
-3.330780988273736281e-08
-3.213407787461014615e-08
-3.097241094915883554e-08
-2.983417052981628510e-08
-2.872963741732140693e-08
-2.766799674925219708e-08
-2.665720654328583179e-08
-2.570386761165898225e-08
-2.481247360593493109e-08
-2.398497082613812980e-08
-2.322065142028306882e-08
-2.251577135539962360e-08
-2.186336527963476462e-08
-2.125318145608410620e-08
-2.067262467720275048e-08
-2.010721679985284352e-08
-1.954180638573025271e-08
-1.896126523186726745e-08
-1.835193341384704954e-08
-1.770223243047353883e-08
-1.700446489891209427e-08
-1.625670877508098328e-08
-1.546375315113270003e-08
-1.463787502058105763e-08
-1.379627757245122358e-08
-1.296015016359671743e-08
-1.215296415211356626e-08
-1.139807294446335903e-08
-1.071403984194553672e-08
-1.011139485624733086e-08
-9.591435246247184394e-09
-9.146162851643744631e-09
-8.758475093386572532e-09
-8.405651534604423346e-09
-8.062954571690821739e-09
-7.710006801676785830e-09
-7.335529430218469509e-09
-6.938202893898256698e-09
-6.527632320718621143e-09
-6.119685812048029855e-09
-5.732304229708659719e-09
-5.380081177475509890e-09
-5.069612763294965323e-09
-4.797942372971186943e-09
-4.554973444650995109e-09
-4.328436199082760951e-09
-4.108053791258536508e-09
-3.888895479128051761e-09
-3.671708116888870144e-09
-3.460953318579082409e-09
-3.262054738570247202e-09
-3.079128274635917863e-09
-2.912740969541617029e-09
-2.760121546489303056e-09
-2.617441885371848737e-09
-2.481439359656200274e-09
-2.350484619148775975e-09
-2.225589965581498989e-09
-2.108594209221120524e-09
-2.000550135386881849e-09
-1.900518057497499898e-09
-1.806355816489836888e-09
-1.716869857931907935e-09
-1.632223327236428990e-09
-1.552955442739904811e-09
-1.479001653836487948e-09
-1.409525642728783649e-09
-1.343830023060573009e-09
-1.281895888993085843e-09
-1.223702530540414385e-09
-1.168888356908390145e-09
-1.117101636005913811e-09
-1.068155581600939335e-09
-1.021883665733597618e-09
-9.780761803180308241e-10
-9.365386948394568905e-10
-8.971175552333172168e-10
-8.596788880035723884e-10
-8.240919410035056919e-10
-7.902261121731387241e-10
-7.579543237419585705e-10
-7.271570161341164625e-10
-6.977245134384621892e-10
-6.695574958031467967e-10
-6.425661764504221258e-10
-6.166694161174240011e-10
-5.917939476773320525e-10
-5.678736528715495863e-10
-5.448488329057956338e-10
-5.226655329201709603e-10
-5.012749233392114629e-10
-4.806327844355887384e-10
-4.606991568989882909e-10
-4.414380116062076856e-10
-4.228169616960243446e-10
-4.048069516955409961e-10
-3.873819801688495771e-10
-3.705188258714847849e-10
-3.541967918878557495e-10
-3.383974699840104848e-10
-3.231044659877968958e-10
-3.083031818018902426e-10
-2.939805881661476069e-10
-2.801250243344182808e-10
-2.667260126985458245e-10
-2.537740934104750379e-10
-2.412606727142027619e-10
-2.291778650392754199e-10
-2.175183782091809710e-10
-2.062753859887058275e-10
-1.954424319909288087e-10
-1.850133210185916990e-10
-1.749820339126886541e-10
-1.653426213226919994e-10
-1.560891300493706652e-10
-1.472155309839270748e-10
-1.387156483029599224e-10
-1.305831035167342398e-10
-1.228112551359116370e-10
-1.153931604439303252e-10
-1.083215353704762258e-10
-1.015887367949741824e-10
-9.518674817406407488e-11
-8.910716824311698657e-11
-8.334122736281773792e-11
-7.787980216366715371e-11
-7.271344540922569268e-11
-6.783242233425010391e-11
-6.322675710960328562e-11
-5.888627677243243455e-11
-5.480066044568366728e-11
-5.095949590747045629e-11
-4.735233222456691411e-11
-4.396873271775080454e-11
-4.079832672784817028e-11
-3.783085158300943942e-11
-3.505619063371547891e-11
-3.246441550615581647e-11
-3.004582071719790899e-11
-2.779095149876893724e-11
-2.569062999986890718e-11
-2.373597845554822704e-11
-2.191843178978831616e-11
-2.022974817943679492e-11
-1.866208521069378627e-11
-1.720808526240793468e-11
-1.586086530944880594e-11
-1.461402596825826493e-11
-1.346142811659967801e-11
-1.239711030675652882e-11
-1.141537326659035999e-11
-1.051069902303950751e-11
-9.677548979624154811e-12
-8.910420141865076108e-12
-8.204097806447535310e-12
-7.553764032700535946e-12
-6.954981134003485909e-12
-6.403662742624020553e-12
-5.896046354463627354e-12
-5.428668080829194515e-12
-4.998338979701757306e-12
-4.602122157746175066e-12
-4.237313409528626882e-12
-3.901422919797280145e-12
-3.592158264437082229e-12
-3.307408759509265116e-12
-3.045231051445459892e-12
-2.803835849949326224e-12
-2.581575712970082886e-12
-2.376933800302455908e-12
-2.188513518987781855e-12
-2.015028989786069899e-12
-1.855296332647486994e-12
-1.708225673482875036e-12
-1.572813316136996764e-12
-1.448135193349756038e-12
-1.333340430488218655e-12
-1.227645531147901527e-12
-1.130329116008196756e-12
-1.040727002225084378e-12
-9.582277115099342160e-13
-8.822682797044095452e-13
-8.123302671907512033e-13
-7.479363234073256689e-13
-6.886469434506670973e-13
-6.340574672015694701e-13
-5.837953163267676506e-13
-5.375174504587885353e-13
-4.949080258873403613e-13
-4.556762759270452065e-13
-4.195544994042648532e-13
-3.862961561861431434e-13
-3.556742452165579189e-13
-3.274797628735955363e-13
-3.015202758648705628e-13
-2.776186073070150335e-13
-2.556116270104134431e-13
-2.353491377028224332e-13
-2.166928495813928543e-13
-1.995154361865716179e-13
-1.836996651472564186e-13
-1.691375978584138210e-13
-1.557298603277444772e-13
-1.433849658459745099e-13
-1.320186622811522258e-13
-1.215533838740272627e-13
-1.119177059083537632e-13
-1.030458614928950806e-13
-9.487729797450885210e-14
-8.735626414823925466e-14
-8.043143339859420419e-14
-7.405554991618007846e-14
-6.818509550829948604e-14
-6.278000167185103986e-14
-5.780337669364197511e-14
-5.322125374955477567e-14
-4.900235896967519989e-14
-4.511789790708960432e-14
-4.154135912290411291e-14
-3.824833661579588968e-14
-3.521635928840933251e-14
-3.242473262761048721e-14
-2.985440252543760211e-14
-2.748782556419245968e-14
-2.530884922463185083e-14
-2.330260159510445006e-14
-2.145538982789936061e-14
-1.975460664888118378e-14
-1.818864428155978043e-14
-1.674681519743377898e-14
-1.541927915111812289e-14
-1.419697600173494074e-14
-1.307156473083408993e-14
-1.203536595490698118e-14
-1.108130771785409463e-14
-1.020287936953197746e-14
-9.394085561925710030e-15
-8.649405981563348173e-15
-7.963757987016693938e-15
-7.332461986980919339e-15
-6.751209817436472971e-15
-6.216034859757037219e-15
