# bin_4_3
-2.818613173089275639e-08
-2.836422170379683968e-08
-2.854927031925538977e-08
-2.874154738958696228e-08
-2.894133250802456117e-08
-2.914891620678053009e-08
-2.936460021091324546e-08
-2.958869709941213152e-08
-2.982153202416734917e-08
-3.006344187143367771e-08
-3.031477643810130088e-08
-3.057589892735760032e-08
-3.084718563347498475e-08
-3.112902781265098560e-08
-3.142183041461168951e-08
-3.172601461190485321e-08
-3.204201621007186879e-08
-3.237028838673867744e-08
-3.271130010606874516e-08
-3.306553868520742648e-08
-3.343350883786549856e-08
-3.381573408502103574e-08
-3.421275765982118461e-08
-3.462514180204550141e-08
-3.505347042038129422e-08
-3.549834817251757906e-08
-3.596040139236847598e-08
-3.644028007776125487e-08
-3.693865718418183905e-08
-3.745622953107808888e-08
-3.799371951085300423e-08
-3.855187548226246675e-08
-3.913147203344721984e-08
-3.973331113461014416e-08
-4.035822324590015440e-08
-4.100706818464760370e-08
-4.168073564889463565e-08
-4.238014610386075126e-08
-4.310625189111956916e-08
-4.386003809181255065e-08
-4.464252344971534987e-08
-4.545476111273367195e-08
-4.629783958350097994e-08
-4.717288362530302239e-08
-4.808105528208962561e-08
-4.902355479922620874e-08
-5.000162132508269703e-08
-5.101653372514649386e-08
-5.206961170472179777e-08
-5.316221679357365976e-08
-5.429575316994558294e-08
-5.547166803495901716e-08
-5.669145236869176951e-08
-5.795664119944525848e-08
-5.926881477125690314e-08
-6.062959972477719674e-08
-6.204066955654871200e-08
-6.350374443330202874e-08
-6.502059026436748496e-08
-6.659302180935803635e-08
-6.822290202797522519e-08
-6.991213869504905321e-08
-7.166268611820262429e-08
-7.347654931325301535e-08
-7.535577572512135565e-08
-7.730245833821748316e-08
-7.931873952450531672e-08
-8.140679567759961652e-08
-8.356885250487728822e-08
-8.580716993762829542e-08
-8.812404567078910119e-08
-9.052181638049659911e-08
-9.300284388545225935e-08
-9.556952720270342110e-08
-9.822427684477943124e-08
-1.009695347991251349e-07
-1.038077466174521882e-07
-1.067413754060307356e-07
-1.097728827406360222e-07
-1.129047261282271856e-07
-1.161393626927689592e-07
-1.194792143012350546e-07
-1.229266983515553231e-07
-1.264841816635613271e-07
-1.301539906779054606e-07
-1.339384052318048644e-07
-1.378396205438034042e-07
-1.418597676695211024e-07
-1.460008868166735079e-07
-1.502648995734548381e-07
-1.546536221095634023e-07
-1.591687364560398481e-07
-1.638117609793326786e-07
-1.685840541985448471e-07
-1.734868026069849946e-07
-1.785209771856054959e-07
-1.836873230455873159e-07
-1.889863561206532689e-07
-1.944183274617945105e-07
-1.999831881842996970e-07
-2.056805824307588102e-07
-2.115098287492057546e-07
-2.174698543463046568e-07
-2.235591533685623485e-07
-2.297759211007075954e-07
-2.361179385446120729e-07
-2.425820272853385992e-07
-2.491642162361702388e-07
-2.558622435777081806e-07
-2.626735557325545789e-07
-2.695828136331444186e-07
-2.765614804119425143e-07
-2.835889860144426410e-07
-2.906662849181707593e-07
-2.978005266900925474e-07
-3.050041461248383590e-07
-3.122989068304966002e-07
-3.196854272688120541e-07
-3.271297759363573587e-07
-3.345967191024305840e-07
-3.420682166885481385e-07
-3.495326216869512497e-07
-3.569749135872641756e-07
-3.643776174438161170e-07
-3.717226123983913537e-07
-3.789906809047537553e-07
-3.861611498278652771e-07
-3.932121399787609590e-07
-4.001206341996777826e-07
-4.068623942796896245e-07
-4.134119325934276974e-07
-4.197425059332494197e-07
-4.258260451857263157e-07
-4.316329858361696270e-07
-4.371322321087064557e-07
-4.422915168829273635e-07
-4.470783720546357172e-07
-4.514607926842851038e-07
-4.554046512634814023e-07
-4.588709731196549592e-07
-4.618198760028168765e-07
-4.642183460581120644e-07
-4.660505919835828052e-07
-4.673184175024279225e-07
-4.680164928626629929e-07
-4.681124527995150623e-07
-4.675454793142340158e-07
-4.662344811438442623e-07
-4.641120309076529215e-07
-4.611485819398989506e-07
-4.573347113182390357e-07
-4.526653016901378191e-07
-4.471346450641481040e-07
-4.407467311447171933e-07
-4.335444828375973798e-07
-4.256084255668176284e-07
-4.170230740329383504e-07
-4.078493263362743890e-07
-3.981204978755087362e-07
-3.878580138126930392e-07
-3.770931039512122065e-07
-3.658827015249759813e-07
-3.543158549498647663e-07
-3.425099715266668375e-07
-3.305991109609527475e-07
-3.187211564118178327e-07
-3.070060843826796156e-07
-2.955664317704649966e-07
-2.844963083931038491e-07
-2.738781920407947684e-07
-2.637902916085766605e-07
-2.543050811017545998e-07
-2.454826389842612173e-07
-2.373550041329233566e-07
-2.299103617744742104e-07
-2.230907980031628516e-07
-2.168015130032343606e-07
-2.109252360722807892e-07
-2.053331566394284143e-07
-1.998825255162881159e-07
-1.944108495009412286e-07
-1.887412682784119230e-07
-1.827088574451727329e-07
-1.761826707217537079e-07
-1.690782329821992041e-07
-1.613831362028024783e-07
-1.530126340458444051e-07
-1.444332060340360998e-07
-1.356753036104043569e-07
-1.269973943333633776e-07
-1.186853550327435915e-07
-1.111318430463700958e-07
-1.043039299343528452e-07
-9.845114188202663899e-08
-9.357932306468099834e-08
-8.955763038378391317e-08
-8.613517534196587149e-08
-8.299350146611967486e-08
-7.981269632172091142e-08
-7.633996703923023176e-08
-7.238780929544116926e-08
-6.812676985921118429e-08
-6.364141477162395997e-08
-5.923504317890549933e-08
-5.526460319312848305e-08
-5.178864995793662408e-08
-4.891632468830246377e-08
-4.652850016513069305e-08
-4.439814451497679286e-08
-4.229001145310364255e-08
-4.002934368831921649e-08
-3.765521493079546374e-08
-3.528830128707672882e-08
-3.313020369726838487e-08
-3.118721287852194104e-08
-2.950184331453990924e-08
-2.798180271182948049e-08
-2.649680959884776171e-08
-2.503964305233142585e-08
-2.365891273001936440e-08
-2.232649460538023057e-08
-2.110930498320733879e-08
-1.999955647301064145e-08
-1.896309452276003120e-08
-1.797379671972745927e-08
-1.703179120303211940e-08
-1.614762807305359460e-08
-1.532605966110647241e-08
-1.456111947313371355e-08
-1.384018891081939091e-08
-1.315838828809101203e-08
-1.251865477396478001e-08
-1.191978698968165321e-08
-1.135648719517932278e-08
-1.082566729929033887e-08
-1.032594767520512133e-08
-9.855038207521396315e-09
-9.410274572693404198e-09
-8.989680078695973613e-09
-8.591821720065293524e-09
-8.215390679844900563e-09
-7.859018809307196834e-09
-7.521288040008005602e-09
-7.200801714796480978e-09
-6.896245947725369115e-09
-6.606416956195379593e-09
-6.330220613434614493e-09
-6.066662830052406244e-09
-5.814842337740289632e-09
-5.573943695114030472e-09
-5.343229336670314229e-09
-5.122030513131397199e-09
-4.909738951926808174e-09
-4.705800116293461310e-09
-4.509708150789837504e-09
-4.321002078513329409e-09
-4.139262802067851543e-09
-3.964109970819783906e-09
-3.795199111496852647e-09
-3.632218904234976714e-09
-3.474888553529648055e-09
-3.322955310921145295e-09
-3.176192135870227989e-09
-3.034395269024511702e-09
-2.897381499266667825e-09
-2.764986002288541523e-09
-2.637060256552895932e-09
-2.513470091139011774e-09
-2.394093962616450665e-09
-2.278821179944931360e-09
-2.167550389806850748e-09
-2.060188275946880228e-09
-1.956648370805526097e-09
-1.856849941757754454e-09
-1.760717027340112335e-09
-1.668177554495497466e-09
-1.579162582829882968e-09
-1.493605488880386788e-09
-1.411441338475489392e-09
-1.332606316963128760e-09
-1.257037172782814088e-09
-1.184670769264457684e-09
-1.115443583340951527e-09
-1.049291201859557617e-09
-9.861479778317979511e-10
-9.259467864548295877e-10
-8.686187003336365216e-10
-8.140927175078728837e-10
-7.622956792545680264e-10
-7.131522088714964995e-10
-6.665847326243455397e-10
-6.225136081117364032e-10
-5.808571838236331261e-10
-5.415320723464608744e-10
-5.044534437783053057e-10
-4.695353608823621656e-10
-4.366911380822927781e-10
-4.058337269336487625e-10
-3.768761177009119534e-10
-3.497317216044491482e-10
-3.239504779098457737e-10
-3.002074930540008417e-10
-2.780212870871017176e-10
-2.573104872049223043e-10
-2.379957204507472755e-10
-2.199997315351141721e-10
-2.032475909957060615e-10
-1.876671117695859937e-10
-1.731888196899798561e-10
-1.597454699628821828e-10
-1.472760094975416398e-10
-1.357277341099640238e-10
-1.250484968258156691e-10
-1.151929279911704177e-10
-1.061060637389963524e-10
-9.773535548826086025e-11
-9.002468102959769587e-11
-8.292235292523020505e-11
-7.638033562378570649e-11
-7.035443285458680654e-11
-6.480392758385443362e-11
-5.969131364571133037e-11
-5.498204786425001322e-11
-5.064432066621600713e-11
-4.664881878655038418e-11
-4.296854074144078155e-11
-3.957861566742452199e-11
-3.645613517941453877e-11
-3.357999855016253722e-11
-3.093077009143429145e-11
-2.849054750185015037e-11
-2.624284101926807363e-11
-2.417246196421205192e-11
-2.226542006861629289e-11
-2.050882890794981773e-11
-1.889081879701896365e-11
-1.740045656025864184e-11
-1.602767183884055196e-11
-1.476319009650545502e-11
-1.359846708927736016e-11
-1.252563263865699841e-11
-1.153743724789285452e-11
-1.062720335229615736e-11
-9.788781736779463498e-12
-9.016507325315067753e-12
-8.305161163616875974e-12
-7.649936107838971941e-12
-7.046404325342360299e-12
-6.490487360703907997e-12
-5.978428564463301451e-12
-5.506767698069009722e-12
-5.072317543214300725e-12
-4.672142814188122079e-12
-4.303540271680578945e-12
-3.964018862267540090e-12
-3.651284059154528688e-12
-3.363222395590409665e-12
-3.097887175562313407e-12
-2.853485318697609453e-12
-2.628365234625761149e-12
-2.421005639191898894e-12
-2.230005284548620193e-12
-2.054073486732472463e-12
-1.892021400563928212e-12
-1.742753983212975422e-12
-1.605262592061631929e-12
-1.478618166787853237e-12
-1.361964978969283148e-12
-1.254514913309007561e-12
-1.155541903282175555e-12
-1.064377173535886619e-12
-9.804046891344578203e-13
-9.030570255508688558e-13
-8.318116602215838297e-13
-7.661871774941851951e-13
-7.057400946005042719e-13
-6.500619227155966072e-13
-5.987764052724668354e-13
-5.515369742701713977e-13
-5.080244073637606369e-13
-4.679446698836526375e-13
-4.310269271840460316e-13
-3.970217660286379543e-13
-3.656994651959924398e-13
-3.368483441187342127e-13
-3.102734252032103246e-13
-2.857951164463236665e-13
-2.632479971919768011e-13
-2.424797004606233509e-13
-2.233498820211196477e-13
-2.057292705481944534e-13
-1.894987948223379183e-13
-1.745487787822424292e-13
-1.607782001092098466e-13
-1.480940073313230391e-13
-1.364104908272754490e-13
-1.256487034746200314e-13
-1.157359307321257843e-13
-1.066052016532173697e-13
-9.819481791242707374e-14
