# bin_4_4
1.166774345895028690e-08
9.603569344654671570e-09
7.775505420260875015e-09
6.332552775350240339e-09
5.104221706366934186e-09
4.013518916928356363e-09
3.149668480850571412e-09
2.492092422122199535e-09
1.961553203891495904e-09
1.535290852371496874e-09
1.192061054476231472e-09
9.338556402023086650e-10
7.522316399245702916e-10
6.087661443060483533e-10
4.821753021205797963e-10
3.819761124695937297e-10
3.090391718716467076e-10
2.487922083281723366e-10
1.939720487461505390e-10
1.496155671984243982e-10
