# bin_2_1
2.590978088192500814e-09
2.200390650525940343e-09
1.898090381525284700e-09
1.606952264072703212e-09
1.264052874102443771e-09
9.618950783154683554e-10
7.655573362928675909e-10
5.984098661540979239e-10
4.646371101923660309e-10
3.541450963671825005e-10
2.682049264854569748e-10
2.041303044260255885e-10
1.606504577303333059e-10
1.276504823405332754e-10
9.977338607432853511e-11
7.882679218548851571e-11
6.425955930797573411e-11
5.263286136292823433e-11
4.219292064592008944e-11
3.364422135917996821e-11
