# bin_2_1
2.035528759809137608e-06
2.048176130494930408e-06
2.061313994769243780e-06
2.074960963575284441e-06
2.089136449706089220e-06
2.103860583806082866e-06
2.119154083272643767e-06
2.135038617900157687e-06
2.151536506059702415e-06
2.168670890885174155e-06
2.186465849809427908e-06
2.204946122463956443e-06
2.224137583257999119e-06
2.244066739764226986e-06
2.264761328476464727e-06
2.286249764483095837e-06
2.308561758655338160e-06
2.331727745904658512e-06
2.355779533338264026e-06
2.380749693860928607e-06
2.406672219150688742e-06
2.433582021367370243e-06
2.461515280897079054e-06
2.490509481453039491e-06
2.520603109628991639e-06
2.551836178964715911e-06
2.584249893318618013e-06
2.617886667939209592e-06
2.652790492770660285e-06
2.689006685010114005e-06
2.726581866718317337e-06
2.765564068032170665e-06
2.806002963958320538e-06
2.847949618917959329e-06
2.891456595177173844e-06
2.936577936076749634e-06
2.983369254321022687e-06
3.031887782177835494e-06
3.082192340396811283e-06
3.134343265752360001e-06
3.188402484861513770e-06
3.244433550799683126e-06
3.302501541919919832e-06
3.362673017594638583e-06
3.425016102045382326e-06
3.489600471276720292e-06
3.556497243376920782e-06
3.625778990959052096e-06
3.697519763659304160e-06
3.771794956118698915e-06
3.848681176047828140e-06
3.928256284434384295e-06
4.010599249353490892e-06
4.095790012337662492e-06
4.183909527072900122e-06
4.275039457240183842e-06
4.369261813129995949e-06
4.466659155792042835e-06
4.567314652998880207e-06
4.671311401842156391e-06
4.778732114505470202e-06
4.889659278737783319e-06
5.004175125317936105e-06
5.122360413340392624e-06
5.244294711587772998e-06
5.370056766613783499e-06
5.499722236816630209e-06
5.633365613431769770e-06
5.771058394112509858e-06
5.912868560866126814e-06
6.058861738755080358e-06
6.209097949253667366e-06
6.363634317624827635e-06
6.522521154851591778e-06
6.685804765758386536e-06
6.853523478549745075e-06
7.025710378317301592e-06
7.202389324557661596e-06
7.383577247307863513e-06
7.569280773819687467e-06
7.759497237773236924e-06
7.954213855457060647e-06
8.153403776832286823e-06
8.357026605594029754e-06
8.565029993853839712e-06
8.777350474688293616e-06
8.993880561345104604e-06
9.214466319424987709e-06
9.438945312374907371e-06
9.666907231699318248e-06
9.897912128215673731e-06
1.013126071992077925e-05
1.036555664122767405e-05
1.060076978436950783e-05
1.083898570109630724e-05
1.108129862473644621e-05
1.132744450178641051e-05
1.157671159666654778e-05
1.182813482099455050e-05
1.208047808536479741e-05
1.233336738566912141e-05
1.258635140577711303e-05
1.283891808727786247e-05
1.304328589106487074e-05
1.329229425113380854e-05
1.353908571897904448e-05
1.378298007658412508e-05
1.402325617065313026e-05
1.425915275964263801e-05
1.448986647374830427e-05
1.471455048494440538e-05
1.493231306395241381e-05
1.514221629999223175e-05
1.534327637057774483e-05
1.553446156263715787e-05
1.571469067444055827e-05
1.588284590269435829e-05
1.603779550112254416e-05
1.617840584248658717e-05
1.630351848241191103e-05
1.641187266689849030e-05
1.650214452874621199e-05
1.657325650965790732e-05
1.662473959952796539e-05
1.665663820815149905e-05
1.666878134790806312e-05
1.665981314629665907e-05
1.662694585372840873e-05
1.656716461414197133e-05
1.647871347024252187e-05
1.636123343662112915e-05
1.621478233727089463e-05
1.603897120098272827e-05
1.583324678348195779e-05
1.559803362178827118e-05
1.533532239966649464e-05
1.504802107552525876e-05
1.473883200825396111e-05
1.440956615319494675e-05
1.406123846484037942e-05
1.369466426452352174e-05
1.331111975969307170e-05
1.291279442838733119e-05
1.255551753478229314e-05
1.213671633864474365e-05
1.171514379161878806e-05
1.129547757250930064e-05
1.088213071095489601e-05
1.047896791407813649e-05
1.008922213799185699e-05
9.715780620540533026e-06
9.361103715484394495e-06
9.027656922326366234e-06
8.717597385795778473e-06
8.431727341595371902e-06
8.169831398654392115e-06
7.929434836978598762e-06
7.707265219073776598e-06
7.499260772258801528e-06
7.300816489187969779e-06
7.107112084569702821e-06
6.912421751911514924e-06
6.710962858431839783e-06
6.496830208278469376e-06
6.265283919099196636e-06
6.014051214906188881e-06
5.743059367850477622e-06
5.454172058308455819e-06
5.152277917619658848e-06
4.844821138945559813e-06
4.540928437406088492e-06
4.250000931117533506e-06
3.981189562907335905e-06
3.741756839116302849e-06
3.535955367164066565e-06
3.364603870633175553e-06
3.222532989706983019e-06
3.101930085914660138e-06
2.991249293291598958e-06
2.880237589661209434e-06
2.759505238763407663e-06
2.625210223333980646e-06
2.476957352698125874e-06
2.321708532071208125e-06
2.168085687502116795e-06
2.026582169083487180e-06
1.903953924595258590e-06
1.802225159438530742e-06
1.718026646127605297e-06
1.643264981523633784e-06
1.570581227610089486e-06
1.492946321315709859e-06
1.411248813205696310e-06
1.328171566045286858e-06
1.250436659657585157e-06
1.181806186495104152e-06
1.122210239655166440e-06
1.069125599590726987e-06
1.017765136426964717e-06
9.667642919089586366e-07
9.165424852663885680e-07
8.691216215703047889e-07
8.262300934693759233e-07
7.868421616353827873e-07
7.498265469695123785e-07
7.144174180845945221e-07
6.805213573001063747e-07
6.488717897532205451e-07
6.194165334513590757e-07
5.916228190892413350e-07
5.653626170655248197e-07
5.405832971685536631e-07
5.171838378818665668e-07
4.951252409857408445e-07
4.742962668328664928e-07
4.545736598544259154e-07
4.358985601643479464e-07
4.181965574845052581e-07
4.013715139205522135e-07
3.853598526907056551e-07
3.701111127024247633e-07
3.555786455522041444e-07
3.417164237246795277e-07
3.284757345215276855e-07
3.158099881781541400e-07
3.036750057201284754e-07
2.920306228699182239e-07
2.808404630199019961e-07
2.700718511436352680e-07
2.596953894409566491e-07
2.496848779700323015e-07
2.400168251459169083e-07
2.306702957281091492e-07
2.216264915703601533e-07
2.128685539625743475e-07
2.043814137349218880e-07
1.961515950129362396e-07
1.881671602069732863e-07
1.804175168065038361e-07
1.728933623890885561e-07
1.655865329278901387e-07
1.584899258827031501e-07
1.515974004090761758e-07
1.449036550429661475e-07
1.384041837980922589e-07
1.320951077855769055e-07
1.259731746734812780e-07
1.200356055272608044e-07
1.142800737046718833e-07
1.087045903550769010e-07
1.033074658775383682e-07
9.808725172172218569e-08
9.304264054350979382e-08
8.817247566897987812e-08
8.347560555766503441e-08
7.895092703737275122e-08
7.459722445583432237e-08
7.041321458281373014e-08
6.639742918536057744e-08
6.254821554223606660e-08
5.886368672733315228e-08
5.534168047090522484e-08
5.197976962703111653e-08
4.877520748648137068e-08
4.572496922002947470e-08
4.282571512213341029e-08
4.007383910676081718e-08
3.746546136906332910e-08
3.499646591442086740e-08
3.266252996831310140e-08
3.045915066539215452e-08
2.838167655744605911e-08
2.642534435818402221e-08
2.458531418105810232e-08
2.285670014960238123e-08
2.123460173635195251e-08
1.971413168866443369e-08
1.829044467838906754e-08
1.695875280122548509e-08
1.571435042099988582e-08
1.455263071283843975e-08
1.346910324321475526e-08
1.245940465412891508e-08
1.151931122929403929e-08
1.064474567586311162e-08
9.831785195656490466e-09
9.076665583690580872e-09
8.375782851008615524e-09
7.725701298819408031e-09
7.123157519900610686e-09
6.565070852860481359e-09
6.048557005743649685e-09
5.570958367965351939e-09
5.129981112037699761e-09
4.723296584685810336e-09
4.348621692162106299e-09
4.003593209538369376e-09
3.685928836530953932e-09
3.393464896682275235e-09
3.124206770613474151e-09
2.876312759574674749e-09
2.648088269572289772e-09
2.437972562335921073e-09
2.244528720654006203e-09
2.066433852566683388e-09
1.902470043149047764e-09
1.751516025171777021e-09
1.612539508761243044e-09
1.484590114124861456e-09
1.366792875487676199e-09
1.258342256469195640e-09
1.158496640299370938e-09
1.066573257334818497e-09
9.819435151623431559e-10
9.040286993326590427e-10
8.322960207825624524e-10
7.662549861435477211e-10
7.054540022085656306e-10
6.494773495062408976e-10
5.979422415867249987e-10
5.504962622916336785e-10
5.068150772340070002e-10
4.665999869067931290e-10
4.295759428630714378e-10
3.954897248698213255e-10
3.641082083782221276e-10
3.352167695074382340e-10
3.086178166491441470e-10
2.841294386387096077e-10
2.615841602375467948e-10
2.408278194851788574e-10
2.217184945598391548e-10
2.041254876999074849e-10
1.879284731559450083e-10
1.730166743535147310e-10
1.592881060214309625e-10
1.466488766368784355e-10
1.350125458018668145e-10
1.242995325397672360e-10
1.144365711940365375e-10
1.053562102020033038e-10
9.699635065496419474e-11
8.929982148688084593e-11
8.221398838349909886e-11
7.569039373469595213e-11
6.968442589858180957e-11
6.415501452262573141e-11
5.906434708973619391e-11
5.437761455530349270e-11
5.006276525211721203e-11
4.609029181185391149e-11
4.243303800825820769e-11
3.906599204015428768e-11
3.596612414613466881e-11
3.311223230921179539e-11
3.048479717658192022e-11
2.806584849773992684e-11
2.583884216623448926e-11
2.378854702300987771e-11
2.190094064631832103e-11
2.016311595612999187e-11
1.856318945029780711e-11
1.709021808184848351e-11
1.573412728832292533e-11
1.448564205660011413e-11
1.333622346268581178e-11
1.227801026896519505e-11
1.130376509974077057e-11
1.040682491461042843e-11
9.581055444157522530e-12
8.820809221780958197e-12
8.120886947119201345e-12
7.476501916529128296e-12
6.883247277094561282e-12
6.337065879979440908e-12
5.834222612422325042e-12
5.371278817885838633e-12
4.945068664630812499e-12
4.552677725704101392e-12
4.191422445986542415e-12
3.858832398600160593e-12
3.552633922306479219e-12
3.270732812160957475e-12
3.011200910133530027e-12
2.772263087010226994e-12
2.552285095291091217e-12
2.349762386504607324e-12
2.163309807553041390e-12
1.989529935840139589e-12
1.831661546504481728e-12
1.652118730091668965e-12
1.521022566329519666e-12
1.191986810440947759e-12
1.097396819478362145e-12
4.679120583661072846e-13
4.307719983040109354e-13
6.599264647091847690e-14
6.075325202462706494e-14
0.000000000000000000e+00
-4.386629290505347482e-30
