# bin_4_3
3.473326730636823547e-07
3.495244782369879209e-07
3.518018696882436152e-07
3.541681665734119953e-07
3.566267995724650666e-07
3.591813347967469165e-07
3.618354830277717641e-07
3.645930747285194770e-07
3.674581055500310527e-07
3.704347108265067465e-07
3.735271789043892182e-07
3.767399736769052468e-07
3.800777025936265518e-07
3.835451745096279410e-07
3.871473456878794003e-07
3.908893907181737049e-07
3.947766416413523670e-07
3.988146638671995674e-07
4.030091923952417073e-07
4.073662079975100240e-07
4.118918830988222412e-07
4.165926321542744173e-07
4.214751067318953563e-07
4.265461783115037486e-07
4.318130022982255148e-07
4.372829667859372760e-07
4.429637244037039494e-07
4.488632302675908647e-07
4.549897005638261547e-07
4.613516397031623381e-07
4.679578721354971336e-07
4.748175328731991782e-07
4.819400652405103042e-07
4.893352446741671471e-07
4.970131903282855712e-07
5.049843813887239829e-07
5.132596497925778100e-07
5.218501957830798391e-07
5.307676006425073759e-07
5.400238378594119994e-07
5.496312816134926960e-07
5.596027141691292984e-07
5.699513357602378156e-07
5.806907743798206866e-07
5.918351003304409439e-07
6.033988353475130800e-07
6.153969603861397174e-07
6.278449266622155109e-07
6.407586645268700038e-07
6.541545947220413309e-07
6.680496368444225568e-07
6.824612145771034996e-07
6.974072514465986805e-07
7.129061632016115236e-07
7.289768761639425952e-07
7.456388617425632348e-07
7.629121280325891529e-07
7.808172157871978868e-07
7.993751361982085021e-07
8.186074762117876701e-07
8.385363915383479635e-07
8.591844990703226435e-07
8.805748613908480614e-07
9.027311656447749543e-07
9.256774980654590150e-07
9.494383401751972480e-07
9.740388104637014935e-07
9.995042047806697422e-07
1.025860400027899489e-06
1.053133598066616636e-06
1.081350235614318199e-06
1.110537246390841548e-06
1.140721478730382880e-06
1.171930327545510772e-06
1.204190885546572698e-06
1.237530752366665918e-06
1.271977082072385677e-06
1.307557378684193571e-06
1.344298647304786862e-06
1.382227798340678256e-06
1.421371479767242278e-06
1.461755533040965349e-06
1.503405788990364376e-06
1.546346815777638092e-06
1.590602697162590944e-06
1.636196613981203386e-06
1.683150207905096146e-06
1.731484372824640488e-06
1.781218334493847104e-06
1.832369405541046002e-06
1.884953641257638862e-06
1.938984983194967330e-06
1.994474971491825947e-06
2.051432982184251223e-06
2.109865960938855648e-06
2.169777576459210799e-06
2.231168434135568018e-06
2.294036056092722480e-06
2.358374051855453029e-06
2.424172281077382121e-06
2.491416847945532081e-06
2.560087615233388415e-06
2.630157549669233417e-06
2.701600807660027727e-06
2.774393628051732360e-06
2.848471394269727177e-06
2.923747555072308116e-06
3.000247817037208686e-06
3.078076236437652603e-06
3.156650613952143052e-06
3.234791654685630754e-06
3.312559900462899766e-06
3.391599453473709406e-06
3.472808301486213810e-06
3.555267541677199842e-06
3.638015585862079045e-06
3.720916787399283960e-06
3.803983361088576369e-06
3.887052621004200854e-06
3.969917807855153242e-06
4.052405208912996263e-06
4.134325584579022417e-06
4.215462295693217524e-06
4.295587356438697300e-06
4.374462996552503735e-06
4.451837506848550603e-06
4.527444657054750251e-06
4.601004947005571701e-06
4.672224798877553541e-06
4.740796846860626331e-06
4.806399787961405709e-06
4.868695974128777464e-06
4.927323939277159286e-06
4.981903586965753708e-06
5.032055214100645327e-06
5.077434614151445540e-06
5.117739290008053746e-06
5.152537584252123775e-06
5.181154673186109074e-06
5.203063609833208331e-06
5.218270308005431122e-06
5.227398290208631482e-06
5.231021825552951845e-06
5.228188926046574147e-06
5.216815881048651962e-06
5.195599574920861404e-06
5.164592171767923610e-06
5.124556127350812899e-06
5.075734639273918103e-06
5.017132834488113844e-06
4.947987248802641017e-06
4.868969397862737089e-06
4.781546029271262175e-06
4.687093827868567208e-06
4.586371975756764988e-06
4.479566059129922229e-06
4.366650450599275479e-06
4.247731017989072931e-06
4.123272770635777939e-06
3.994189573229707705e-06
3.861791577971892660e-06
3.727697334364920612e-06
3.593629180931384051e-06
3.461165562908751802e-06
3.331624158945346969e-06
3.206088554851217588e-06
3.085428081925840722e-06
2.970342278532858699e-06
2.861633209549110207e-06
2.760333501521133993e-06
2.667244136930156176e-06
2.582518339665786931e-06
2.505450809819283885e-06
2.434752067448130663e-06
2.369066456898680549e-06
2.307106489905858578e-06
2.247462194399571647e-06
2.188455772611547159e-06
2.128056662607891538e-06
2.063958560528309780e-06
1.993971262443942705e-06
1.916996204056788286e-06
1.833080723333911534e-06
1.742419801954630881e-06
1.645802210810552459e-06
1.545708570536812890e-06
1.445651246385680728e-06
1.348877897978020756e-06
1.258456870452454648e-06
1.177418155845640261e-06
1.108117821932093249e-06
1.051540164118448681e-06
1.006530479436568766e-06
9.700741962593530491e-07
9.380846250462528579e-07
9.062452614923075862e-07
8.708756573141634569e-07
8.295732513350187065e-07
7.816666610201459857e-07
7.291462185787896631e-07
6.760031945868342832e-07
6.267503800516788294e-07
5.849224115381668136e-07
5.518734619433298327e-07
5.264888257234428704e-07
5.054769412652545795e-07
4.847290582321241358e-07
4.609067607394963595e-07
4.334087997355780215e-07
4.043862838005279265e-07
3.772429277149412678e-07
3.545395664890494649e-07
3.364239045833245035e-07
3.209831819538451828e-07
3.056007645957360087e-07
2.889423498934429838e-07
2.718044910671955712e-07
2.558891826870174594e-07
2.422933301612304886e-07
2.304721351239616976e-07
2.190737993654583793e-07
2.076216795467338583e-07
1.965588306390301622e-07
1.864767195535873519e-07
1.774116007167705087e-07
1.688281501108140080e-07
1.604993982255237410e-07
1.526918195776765298e-07
1.454817971126317545e-07
1.386865989556398300e-07
1.322411440077994718e-07
1.261835869710727901e-07
1.204971457355671637e-07
1.151296748794419577e-07
1.100468611478359075e-07
1.052315706319080332e-07
1.006716578136685474e-07
9.635386017539955811e-08
9.226261082218519452e-08
8.838122077845990583e-08
8.469334327599659638e-08
8.118401389036528845e-08
7.783969947808596993e-08
7.464808037104947294e-08
7.159795489453685336e-08
6.867918059787674359e-08
6.588263225794196402e-08
6.320010231492160502e-08
6.062417620458227025e-08
5.814811778410647904e-08
5.576578062933282780e-08
5.347156685058976890e-08
5.126039401430361074e-08
4.912766055862516287e-08
4.706920438451341385e-08
4.508126592840558956e-08
4.316045767107624618e-08
4.130374014857004248e-08
3.950839695663048668e-08
3.777200141363646229e-08
3.609238783347360162e-08
3.446761596041285445e-08
3.289595093157027266e-08
3.137583717192244290e-08
2.990587762817566817e-08
2.848481136628549075e-08
2.711149487831918352e-08
2.578488591011097005e-08
2.450402683975036040e-08
2.326803295660018004e-08
2.207607789076010334e-08
2.092738469519668917e-08
1.982121369707111184e-08
1.875685488720354128e-08
1.773361865500589545e-08
1.675082787804729356e-08
1.580781154192383895e-08
1.490389593386086723e-08
1.403840039552607119e-08
1.321062870757467724e-08
1.241986596232132754e-08
1.166537296890986778e-08
1.094638184865691115e-08
1.026209146427280431e-08
9.611664108021851109e-09
8.994226427701195481e-09
8.408868703869073350e-09
7.854646687696095097e-09
7.330583162511650949e-09
6.835671987455636902e-09
6.368882146690229818e-09
5.929162697135276937e-09
5.515448199860435461e-09
5.126664180517974880e-09
4.761732798434118893e-09
4.419578225026222459e-09
4.099131807275452854e-09
3.799336907820665622e-09
3.519153347793980469e-09
3.257561124253506323e-09
3.013563577895037830e-09
2.786191322516580752e-09
2.574504872537928810e-09
2.377593339978967947e-09
2.194578239875089629e-09
2.024625828594822490e-09
1.866932989375197981e-09
1.720696519144416560e-09
1.585196400762399504e-09
1.459918293855237262e-09
1.344395671800808150e-09
1.238002010877663575e-09
1.140026818667906006e-09
1.049805011192728702e-09
9.667233285239934878e-10
8.902167128559240709e-10
8.197647988874689078e-10
7.548884065320339243e-10
6.951462833289530096e-10
6.401320982384940583e-10
5.894716790012432793e-10
5.428204673155227560e-10
4.998611748055497222e-10
4.603016245521041911e-10
4.238727634933120393e-10
3.903268321665822502e-10
3.594356793342906675e-10
3.309892100222145123e-10
3.047939564081371933e-10
2.806717618345158957e-10
2.584585720870293603e-10
2.380033641380008249e-10
2.191670335221745289e-10
2.018214966998343656e-10
1.858487846822700520e-10
1.711402360235175432e-10
1.575957915439758498e-10
1.451233124508140908e-10
1.336379543412044918e-10
1.230615926052900086e-10
1.133222816679780014e-10
1.043537702662407968e-10
9.609505137745575076e-11
8.848994705719152411e-11
8.148672610478552564e-11
7.503775202437928878e-11
6.909915888444291852e-11
6.363055287309808010e-11
5.859473753308629328e-11
5.395746030972950956e-11
4.968717968586873940e-11
4.575485061286837670e-11
4.213372689555541344e-11
3.879917922251528337e-11
3.572852760281989633e-11
3.290088706840098562e-11
3.029702559163255443e-11
2.789923325089409855e-11
2.569120175349070988e-11
2.365791349583979822e-11
2.178553996509930851e-11
2.006135105995236504e-11
1.847362069884967752e-11
1.701155265256705897e-11
1.566520220647102625e-11
1.442540997734844291e-11
1.328374171025991844e-11
1.223243078320892692e-11
1.126432550243888968e-11
1.037284053970586043e-11
9.551911418587553168e-12
8.795953689490269664e-12
8.099824957793243916e-12
7.458789887702500017e-12
6.868487972421076215e-12
6.324903860013881656e-12
5.824340029747453900e-12
5.363391636453732813e-12
4.938923345013912825e-12
4.548047968328847162e-12
4.188106839828770510e-12
3.856651725296582535e-12
3.551428165207566207e-12
3.270360135904116456e-12
3.011535925166214007e-12
2.773195126010050890e-12
2.553716660166337941e-12
2.351607749702652225e-12
2.165493761712390817e-12
1.994108856939994059e-12
1.836287457388953780e-12
1.690956541447525923e-12
1.557127694677906545e-12
1.433890916990317425e-12
1.320407920410722231e-12
1.215906662784733003e-12
1.119676223091501237e-12
1.031061954505454449e-12
9.494610473438890002e-13
8.743184229272413436e-13
